<?xml version="1.0" encoding="utf-8"?>
<!-- Generator: Adobe Illustrator 16.0.0, SVG Export Plug-In . SVG Version: 6.00 Build 0)  -->
<!DOCTYPE svg PUBLIC "-//W3C//DTD SVG 1.1//EN" "http://www.w3.org/Graphics/SVG/1.1/DTD/svg11.dtd">
<svg version="1.1" id="Calque_1" xmlns="http://www.w3.org/2000/svg" xmlns:xlink="http://www.w3.org/1999/xlink" x="0px" y="0px"
	 width="21px" height="21px" viewBox="0 0 21 21" enable-background="new 0 0 21 21" xml:space="preserve">
<path d="M21,12.803c-0.073-0.182-0.226-0.383-0.226-0.383c-0.675-0.75-1.77-1.989-1.77-1.989s-3.123-3.501-3.922-4.677
	c-0.52-0.767-1.364-0.936-1.741-0.722c-0.182,0.103-0.257,0.144-0.257,0.144l2.254,2.434c0,0,0.229,0.193-0.041,0.232
	c-0.27,0.04-0.456-0.16-0.456-0.16s-1.196-1.165-2.118-2.145c-0.909-0.966-1.674-0.557-1.674-0.557l-0.523,0.278l2.854,2.836
	c0,0,0.161,0.185-0.064,0.273c-0.278,0.108-0.511-0.139-0.511-0.139S11.05,6.455,10.13,5.445C9.237,4.461,8.441,4.888,8.441,4.888
	L7.865,5.156l3.281,3.435c0,0,0.292,0.24-0.034,0.327c-0.326,0.087-0.623-0.152-0.623-0.152S8.445,6.59,7.537,5.568
	C6.655,4.574,5.862,5.012,5.862,5.012s-5.06,3.021-5.34,3.179c-0.281,0.159-0.733,0.902-0.41,1.58
	c0.323,0.676,1.314,0.451,1.314,0.451S4.459,9.05,5.311,8.586c0.851-0.464,1.064,0.031,1.064,0.031s0.586,0.686,0.957,1.144
	s0.045,1.747,0.045,2.551c0,0.806-0.691,1.053-1.967,1.362c-1.277,0.309-2.687,0.433-3.298,0.774
	C1.5,14.788,1.338,15.297,1.5,16.211c0.159,0.896,1.038,0.865,2.553,0.865c1.516,0,3.511,0.247,3.511,0.247s1.344-0.126,2.827-0.218
	C14.494,16.469,21,18.344,21,12.803z"/>
</svg>
