<?xml version="1.0" encoding="utf-8"?>
<!-- Generator: Adobe Illustrator 14.0.0, SVG Export Plug-In . SVG Version: 6.00 Build 43363)  -->
<!DOCTYPE svg PUBLIC "-//W3C//DTD SVG 1.1//EN" "http://www.w3.org/Graphics/SVG/1.1/DTD/svg11.dtd">
<svg version="1.1" id="Calque_1" xmlns="http://www.w3.org/2000/svg" xmlns:xlink="http://www.w3.org/1999/xlink" x="0px" y="0px"
	 width="21px" height="21.001px" viewBox="0 0 21 21.001" enable-background="new 0 0 21 21.001" xml:space="preserve">
<path d="M17.925,3.075c-4.102-4.1-10.75-4.1-14.85,0c-4.101,4.1-4.101,10.75,0,14.849c4.1,4.104,10.752,4.102,14.85,0
	C22.025,13.827,22.025,7.175,17.925,3.075z M12.286,10.502l3.148,3.147l-1.788,1.786l-3.147-3.147L7.35,15.436l-1.786-1.786
	l3.148-3.147L5.565,7.353l1.786-1.787L10.5,8.715l3.148-3.148l1.786,1.787L12.286,10.502z"/>
</svg>
