<?xml version="1.0" encoding="UTF-8" standalone="no"?>
<!-- Created with Inkscape (http://www.inkscape.org/) -->

<svg
   xmlns:dc="http://purl.org/dc/elements/1.1/"
   xmlns:cc="http://creativecommons.org/ns#"
   xmlns:rdf="http://www.w3.org/1999/02/22-rdf-syntax-ns#"
   xmlns:svg="http://www.w3.org/2000/svg"
   xmlns="http://www.w3.org/2000/svg"
   xmlns:sodipodi="http://sodipodi.sourceforge.net/DTD/sodipodi-0.dtd"
   xmlns:inkscape="http://www.inkscape.org/namespaces/inkscape"
   width="545.36182"
   height="464.56323"
   viewBox="0 0 545.36184 464.56321"
   id="svg2"
   version="1.1"
   inkscape:version="0.91 r13725"
   sodipodi:docname="arrows.svg">
  <defs
     id="defs4">
    <marker
       inkscape:stockid="TriangleOutL"
       orient="auto"
       refY="0"
       refX="0"
       id="marker19164"
       style="overflow:visible"
       inkscape:isstock="true">
      <path
         id="path19166"
         d="m 5.77,0 -8.65,5 0,-10 8.65,5 z"
         style="fill:black;fill-opacity:1;fill-rule:evenodd;stroke:black;stroke-width:1pt;stroke-opacity:1"
         transform="scale(0.8,0.8)"
         inkscape:connector-curvature="0" />
    </marker>
    <inkscape:path-effect
       effect="spiro"
       id="path-effect19156"
       is_visible="true" />
    <inkscape:path-effect
       effect="spiro"
       id="path-effect19152"
       is_visible="true" />
    <inkscape:path-effect
       effect="spiro"
       id="path-effect12403"
       is_visible="true" />
    <marker
       inkscape:isstock="true"
       style="overflow:visible"
       id="marker11023"
       refX="0"
       refY="0"
       orient="auto"
       inkscape:stockid="TriangleOutL"
       inkscape:collect="always">
      <path
         transform="scale(0.8,0.8)"
         style="fill:black;fill-opacity:1;fill-rule:evenodd;stroke:black;stroke-width:1pt;stroke-opacity:1"
         d="m 5.77,0 -8.65,5 0,-10 8.65,5 z"
         id="path11025"
         inkscape:connector-curvature="0" />
    </marker>
    <inkscape:path-effect
       effect="spiro"
       id="path-effect11015"
       is_visible="true" />
    <marker
       inkscape:stockid="TriangleOutL"
       orient="auto"
       refY="0"
       refX="0"
       id="marker7195"
       style="overflow:visible"
       inkscape:isstock="true"
       inkscape:collect="always">
      <path
         id="path7197"
         d="m 5.77,0 -8.65,5 0,-10 8.65,5 z"
         style="fill:black;fill-opacity:1;fill-rule:evenodd;stroke:black;stroke-width:1pt;stroke-opacity:1"
         transform="scale(0.8,0.8)"
         inkscape:connector-curvature="0" />
    </marker>
    <inkscape:path-effect
       effect="spiro"
       id="path-effect7187"
       is_visible="true" />
    <inkscape:path-effect
       effect="spiro"
       id="path-effect7183"
       is_visible="true" />
    <marker
       inkscape:isstock="true"
       style="overflow:visible"
       id="marker4803"
       refX="0"
       refY="0"
       orient="auto"
       inkscape:stockid="TriangleOutL"
       inkscape:collect="always">
      <path
         transform="scale(0.8,0.8)"
         style="fill:black;fill-opacity:1;fill-rule:evenodd;stroke:black;stroke-width:1pt;stroke-opacity:1"
         d="m 5.77,0 -8.65,5 0,-10 8.65,5 z"
         id="path4805"
         inkscape:connector-curvature="0" />
    </marker>
    <marker
       inkscape:stockid="TriangleInL"
       orient="auto"
       refY="0"
       refX="0"
       id="TriangleInL"
       style="overflow:visible"
       inkscape:isstock="true">
      <path
         id="path4318"
         d="m 5.77,0 -8.65,5 0,-10 8.65,5 z"
         style="fill-rule:evenodd;stroke:black;stroke-width:1pt;stroke-opacity:1"
         transform="scale(-0.8,-0.8)"
         inkscape:connector-curvature="0" />
    </marker>
    <marker
       inkscape:stockid="Arrow2Lstart"
       orient="auto"
       refY="0"
       refX="0"
       id="marker4721"
       style="overflow:visible"
       inkscape:isstock="true">
      <path
         id="path4723"
         style="fill-rule:evenodd;stroke:black;stroke-width:0.625;stroke-linejoin:round;stroke-opacity:1"
         d="M 8.7185878,4.0337352 -2.2072895,0.01601326 8.7185884,-4.0017078 c -1.7454984,2.3720609 -1.7354408,5.6174519 -6e-7,8.035443 z"
         transform="matrix(1.1,0,0,1.1,1.1,0)"
         inkscape:connector-curvature="0" />
    </marker>
    <inkscape:path-effect
       effect="spiro"
       id="path-effect4641"
       is_visible="true" />
    <marker
       inkscape:stockid="TriangleOutL"
       orient="auto"
       refY="0"
       refX="0"
       id="TriangleOutL"
       style="overflow:visible"
       inkscape:isstock="true"
       inkscape:collect="always">
      <path
         id="path4327"
         d="m 5.77,0 -8.65,5 0,-10 8.65,5 z"
         style="fill-rule:evenodd;stroke:black;stroke-width:1pt;stroke-opacity:1"
         transform="scale(0.8,0.8)"
         inkscape:connector-curvature="0" />
    </marker>
    <marker
       inkscape:stockid="Arrow2Lend"
       orient="auto"
       refY="0"
       refX="0"
       id="Arrow2Lend"
       style="overflow:visible"
       inkscape:isstock="true">
      <path
         id="path4206"
         style="fill-rule:evenodd;stroke:black;stroke-width:0.625;stroke-linejoin:round;stroke-opacity:1"
         d="M 8.7185878,4.0337352 -2.2072895,0.01601326 8.7185884,-4.0017078 c -1.7454984,2.3720609 -1.7354408,5.6174519 -6e-7,8.035443 z"
         transform="matrix(-1.1,0,0,-1.1,-1.1,0)"
         inkscape:connector-curvature="0" />
    </marker>
    <inkscape:path-effect
       effect="spiro"
       id="path-effect4519"
       is_visible="true" />
    <marker
       inkscape:stockid="Arrow1Lend"
       orient="auto"
       refY="0"
       refX="0"
       id="Arrow1Lend"
       style="overflow:visible"
       inkscape:isstock="true">
      <path
         id="path4188"
         d="M 0,0 5,-5 -12.5,0 5,5 0,0 Z"
         style="fill-rule:evenodd;stroke:black;stroke-width:1pt;stroke-opacity:1"
         transform="matrix(-0.8,0,0,-0.8,-10,0)"
         inkscape:connector-curvature="0" />
    </marker>
    <marker
       inkscape:stockid="Arrow2Lstart"
       orient="auto"
       refY="0"
       refX="0"
       id="Arrow2Lstart"
       style="overflow:visible"
       inkscape:isstock="true">
      <path
         id="path4203"
         style="fill-rule:evenodd;stroke:black;stroke-width:0.625;stroke-linejoin:round;stroke-opacity:1"
         d="M 8.7185878,4.0337352 -2.2072895,0.01601326 8.7185884,-4.0017078 c -1.7454984,2.3720609 -1.7354408,5.6174519 -6e-7,8.035443 z"
         transform="matrix(1.1,0,0,1.1,1.1,0)"
         inkscape:connector-curvature="0" />
    </marker>
    <marker
       inkscape:isstock="true"
       style="overflow:visible"
       id="marker4803-3"
       refX="0"
       refY="0"
       orient="auto"
       inkscape:stockid="TriangleOutL">
      <path
         inkscape:connector-curvature="0"
         transform="scale(0.8,0.8)"
         style="fill:black;fill-opacity:1;fill-rule:evenodd;stroke:black;stroke-width:1pt;stroke-opacity:1"
         d="m 5.77,0 -8.65,5 0,-10 8.65,5 z"
         id="path4805-1" />
    </marker>
    <inkscape:path-effect
       effect="spiro"
       id="path-effect4641-6"
       is_visible="true" />
    <marker
       inkscape:isstock="true"
       style="overflow:visible"
       id="marker4803-6"
       refX="0"
       refY="0"
       orient="auto"
       inkscape:stockid="TriangleOutL">
      <path
         inkscape:connector-curvature="0"
         transform="scale(0.8,0.8)"
         style="fill:black;fill-opacity:1;fill-rule:evenodd;stroke:black;stroke-width:1pt;stroke-opacity:1"
         d="m 5.77,0 -8.65,5 0,-10 8.65,5 z"
         id="path4805-8" />
    </marker>
    <inkscape:path-effect
       effect="spiro"
       id="path-effect4641-68"
       is_visible="true" />
    <marker
       inkscape:isstock="true"
       style="overflow:visible"
       id="marker4803-7"
       refX="0"
       refY="0"
       orient="auto"
       inkscape:stockid="TriangleOutL"
       inkscape:collect="always">
      <path
         inkscape:connector-curvature="0"
         transform="scale(0.8,0.8)"
         style="fill:black;fill-opacity:1;fill-rule:evenodd;stroke:#4d4d4d;stroke-width:1pt;stroke-opacity:1"
         d="m 5.77,0 -8.65,5 0,-10 8.65,5 z"
         id="path4805-7" />
    </marker>
    <inkscape:path-effect
       effect="spiro"
       id="path-effect4641-5"
       is_visible="true" />
    <marker
       inkscape:isstock="true"
       style="overflow:visible"
       id="marker4803-7-6"
       refX="0"
       refY="0"
       orient="auto"
       inkscape:stockid="TriangleOutL"
       inkscape:collect="always">
      <path
         inkscape:connector-curvature="0"
         transform="scale(0.8,0.8)"
         style="fill:black;fill-opacity:1;fill-rule:evenodd;stroke:#4d4d4d;stroke-width:1pt;stroke-opacity:1"
         d="m 5.77,0 -8.65,5 0,-10 8.65,5 z"
         id="path4805-7-6" />
    </marker>
    <inkscape:path-effect
       effect="spiro"
       id="path-effect4641-5-2"
       is_visible="true" />
    <marker
       inkscape:isstock="true"
       style="overflow:visible"
       id="marker4803-7-65"
       refX="0"
       refY="0"
       orient="auto"
       inkscape:stockid="TriangleOutL"
       inkscape:collect="always">
      <path
         inkscape:connector-curvature="0"
         transform="scale(0.8,0.8)"
         style="fill:black;fill-opacity:1;fill-rule:evenodd;stroke:#4d4d4d;stroke-width:1pt;stroke-opacity:1"
         d="m 5.77,0 -8.65,5 0,-10 8.65,5 z"
         id="path4805-7-3" />
    </marker>
    <inkscape:path-effect
       effect="spiro"
       id="path-effect4641-5-6"
       is_visible="true" />
    <marker
       inkscape:isstock="true"
       style="overflow:visible"
       id="marker4803-7-3"
       refX="0"
       refY="0"
       orient="auto"
       inkscape:stockid="TriangleOutL"
       inkscape:collect="always">
      <path
         inkscape:connector-curvature="0"
         transform="scale(0.8,0.8)"
         style="fill:black;fill-opacity:1;fill-rule:evenodd;stroke:#4d4d4d;stroke-width:1pt;stroke-opacity:1"
         d="m 5.77,0 -8.65,5 0,-10 8.65,5 z"
         id="path4805-7-1" />
    </marker>
    <inkscape:path-effect
       effect="spiro"
       id="path-effect4641-5-3"
       is_visible="true" />
    <marker
       inkscape:isstock="true"
       style="overflow:visible"
       id="marker11023-1"
       refX="0"
       refY="0"
       orient="auto"
       inkscape:stockid="TriangleOutL">
      <path
         inkscape:connector-curvature="0"
         transform="scale(0.8,0.8)"
         style="fill:black;fill-opacity:1;fill-rule:evenodd;stroke:#4d4d4d;stroke-width:1pt;stroke-opacity:1"
         d="m 5.77,0 -8.65,5 0,-10 8.65,5 z"
         id="path11025-0" />
    </marker>
    <inkscape:path-effect
       effect="spiro"
       id="path-effect11015-9"
       is_visible="true" />
    <marker
       inkscape:isstock="true"
       style="overflow:visible"
       id="marker4803-1"
       refX="0"
       refY="0"
       orient="auto"
       inkscape:stockid="TriangleOutL"
       inkscape:collect="always">
      <path
         inkscape:connector-curvature="0"
         transform="scale(0.8,0.8)"
         style="fill:black;fill-opacity:1;fill-rule:evenodd;stroke:#4d4d4d;stroke-width:1pt;stroke-opacity:1"
         d="m 5.77,0 -8.65,5 0,-10 8.65,5 z"
         id="path4805-85" />
    </marker>
    <inkscape:path-effect
       effect="spiro"
       id="path-effect4641-1"
       is_visible="true" />
    <marker
       inkscape:isstock="true"
       style="overflow:visible"
       id="marker4803-1-2"
       refX="0"
       refY="0"
       orient="auto"
       inkscape:stockid="TriangleOutL"
       inkscape:collect="always">
      <path
         inkscape:connector-curvature="0"
         transform="scale(0.8,0.8)"
         style="fill:black;fill-opacity:1;fill-rule:evenodd;stroke:#333;stroke-width:1pt;stroke-opacity:1"
         d="m 5.77,0 -8.65,5 0,-10 8.65,5 z"
         id="path4805-85-2" />
    </marker>
    <inkscape:path-effect
       effect="spiro"
       id="path-effect4641-1-3"
       is_visible="true" />
    <marker
       inkscape:isstock="true"
       style="overflow:visible"
       id="marker4803-1-1"
       refX="0"
       refY="0"
       orient="auto"
       inkscape:stockid="TriangleOutL"
       inkscape:collect="always">
      <path
         inkscape:connector-curvature="0"
         transform="scale(0.8,0.8)"
         style="fill:black;fill-opacity:1;fill-rule:evenodd;stroke:#4d4d4d;stroke-width:1pt;stroke-opacity:1"
         d="m 5.77,0 -8.65,5 0,-10 8.65,5 z"
         id="path4805-85-7" />
    </marker>
    <inkscape:path-effect
       effect="spiro"
       id="path-effect4641-1-8"
       is_visible="true" />
    <marker
       inkscape:isstock="true"
       style="overflow:visible"
       id="marker11023-3"
       refX="0"
       refY="0"
       orient="auto"
       inkscape:stockid="TriangleOutL">
      <path
         inkscape:connector-curvature="0"
         transform="scale(0.8,0.8)"
         style="fill:black;fill-opacity:1;fill-rule:evenodd;stroke:#4d4d4d;stroke-width:1pt;stroke-opacity:1"
         d="m 5.77,0 -8.65,5 0,-10 8.65,5 z"
         id="path11025-4" />
    </marker>
    <inkscape:path-effect
       effect="spiro"
       id="path-effect11015-1"
       is_visible="true" />
    <marker
       inkscape:stockid="TriangleOutL"
       orient="auto"
       refY="0"
       refX="0"
       id="marker7195-9"
       style="overflow:visible"
       inkscape:isstock="true"
       inkscape:collect="always">
      <path
         inkscape:connector-curvature="0"
         id="path7197-0"
         d="m 5.77,0 -8.65,5 0,-10 8.65,5 z"
         style="fill:black;fill-opacity:1;fill-rule:evenodd;stroke:black;stroke-width:1pt;stroke-opacity:1"
         transform="scale(0.8,0.8)" />
    </marker>
    <inkscape:path-effect
       effect="spiro"
       id="path-effect7183-0"
       is_visible="true" />
    <marker
       inkscape:isstock="true"
       style="overflow:visible"
       id="marker11023-3-5"
       refX="0"
       refY="0"
       orient="auto"
       inkscape:stockid="TriangleOutL">
      <path
         inkscape:connector-curvature="0"
         transform="scale(0.8,0.8)"
         style="fill:black;fill-opacity:1;fill-rule:evenodd;stroke:#4d4d4d;stroke-width:1pt;stroke-opacity:1"
         d="m 5.77,0 -8.65,5 0,-10 8.65,5 z"
         id="path11025-4-9" />
    </marker>
    <inkscape:path-effect
       effect="spiro"
       id="path-effect11015-1-3"
       is_visible="true" />
    <marker
       inkscape:stockid="TriangleOutL"
       orient="auto"
       refY="0"
       refX="0"
       id="TriangleOutL-2"
       style="overflow:visible"
       inkscape:isstock="true"
       inkscape:collect="always">
      <path
         inkscape:connector-curvature="0"
         id="path4327-9"
         d="m 5.77,0 -8.65,5 0,-10 8.65,5 z"
         style="fill-rule:evenodd;stroke:black;stroke-width:1pt;stroke-opacity:1"
         transform="scale(0.8,0.8)" />
    </marker>
    <inkscape:path-effect
       effect="spiro"
       id="path-effect4519-4"
       is_visible="true" />
    <marker
       inkscape:isstock="true"
       style="overflow:visible"
       id="marker4803-6-3"
       refX="0"
       refY="0"
       orient="auto"
       inkscape:stockid="TriangleOutL">
      <path
         inkscape:connector-curvature="0"
         transform="scale(0.8,0.8)"
         style="fill:black;fill-opacity:1;fill-rule:evenodd;stroke:#4d4d4d;stroke-width:1pt;stroke-opacity:1"
         d="m 5.77,0 -8.65,5 0,-10 8.65,5 z"
         id="path4805-8-8" />
    </marker>
    <inkscape:path-effect
       effect="spiro"
       id="path-effect4641-68-5"
       is_visible="true" />
    <marker
       inkscape:isstock="true"
       style="overflow:visible"
       id="marker4803-0"
       refX="0"
       refY="0"
       orient="auto"
       inkscape:stockid="TriangleOutL"
       inkscape:collect="always">
      <path
         inkscape:connector-curvature="0"
         transform="scale(0.8,0.8)"
         style="fill:black;fill-opacity:1;fill-rule:evenodd;stroke:black;stroke-width:1pt;stroke-opacity:1"
         d="m 5.77,0 -8.65,5 0,-10 8.65,5 z"
         id="path4805-76" />
    </marker>
    <inkscape:path-effect
       effect="spiro"
       id="path-effect4641-0"
       is_visible="true" />
  </defs>
  <sodipodi:namedview
     id="base"
     pagecolor="#ffffff"
     bordercolor="#666666"
     borderopacity="1.0"
     inkscape:pageopacity="0.0"
     inkscape:pageshadow="2"
     inkscape:zoom="1.2910564"
     inkscape:cx="198.79788"
     inkscape:cy="198.16705"
     inkscape:document-units="px"
     inkscape:current-layer="layer1"
     showgrid="true"
     showguides="true"
     guidetolerance="20"
     objecttolerance="10000"
     inkscape:window-width="1680"
     inkscape:window-height="1023"
     inkscape:window-x="-9"
     inkscape:window-y="209"
     inkscape:window-maximized="1"
     fit-margin-top="1"
     fit-margin-left="1"
     fit-margin-right="1"
     fit-margin-bottom="1"
     units="px">
    <inkscape:grid
       type="xygrid"
       id="grid4177"
       originy="-324.4843"
       spacingx="7.0866142"
       spacingy="7.0866143"
       empspacing="5"
       originx="-87.129991" />
  </sodipodi:namedview>
  <metadata
     id="metadata7">
    <rdf:RDF>
      <cc:Work
         rdf:about="">
        <dc:format>image/svg+xml</dc:format>
        <dc:type
           rdf:resource="http://purl.org/dc/dcmitype/StillImage" />
        <dc:title></dc:title>
      </cc:Work>
    </rdf:RDF>
  </metadata>
  <g
     inkscape:label="Calque 1"
     inkscape:groupmode="layer"
     id="layer1"
     transform="translate(-88.779279,-263.31475)">
    <rect
       style="opacity:1;fill:none;fill-opacity:1;fill-rule:evenodd;stroke:#4d4d4d;stroke-width:4.98045874;stroke-linecap:square;stroke-linejoin:miter;stroke-miterlimit:4;stroke-dasharray:none;stroke-dashoffset:0;stroke-opacity:1"
       id="rect14079"
       width="538.38135"
       height="319.97308"
       x="92.269508"
       y="266.80496"
       inkscape:export-xdpi="99"
       inkscape:export-ydpi="99" />
    <path
       style="fill:none;fill-rule:evenodd;stroke:#4d4d4d;stroke-width:1px;stroke-linecap:butt;stroke-linejoin:miter;stroke-opacity:1;marker-end:url(#TriangleOutL)"
       d="m 253.11811,345.97363 0,18.987 98.9756,0.25254 0.25254,15.19893"
       id="path4517"
       inkscape:path-effect="#path-effect4519"
       inkscape:original-d="m 253.11811,345.97363 0,18.987 98.9756,0.25254 0.25254,15.19893"
       inkscape:connector-curvature="0"
       sodipodi:nodetypes="cccc"
       inkscape:export-xdpi="99"
       inkscape:export-ydpi="99" />
    <path
       style="fill:none;fill-opacity:1;fill-rule:evenodd;stroke:#4d4d4d;stroke-width:1px;stroke-linecap:butt;stroke-linejoin:miter;stroke-opacity:1;marker-end:url(#marker4803)"
       d="m 313.88749,315.03994 -9.39056,0"
       id="path4639"
       inkscape:path-effect="#path-effect4641"
       inkscape:original-d="m 313.88749,315.03994 -9.39056,0"
       inkscape:connector-curvature="0"
       sodipodi:nodetypes="cc"
       inkscape:export-xdpi="99"
       inkscape:export-ydpi="99" />
    <path
       style="fill:none;fill-opacity:1;fill-rule:evenodd;stroke:#4d4d4d;stroke-width:1px;stroke-linecap:butt;stroke-linejoin:miter;stroke-opacity:1;marker-end:url(#marker4803-6)"
       d="m 418.97411,315.03994 -9.39056,0"
       id="path4639-7"
       inkscape:path-effect="#path-effect4641-68"
       inkscape:original-d="m 418.97411,315.03994 -9.39056,0"
       inkscape:connector-curvature="0"
       sodipodi:nodetypes="cc"
       inkscape:export-xdpi="99"
       inkscape:export-ydpi="99" />
    <path
       style="fill:none;fill-rule:evenodd;stroke:#4d4d4d;stroke-width:1px;stroke-linecap:butt;stroke-linejoin:miter;stroke-opacity:1;marker-end:url(#marker7195)"
       d="m 364.50394,384.07761 0,-19.11698 98.9756,0 0,-12.92608"
       id="path7181"
       inkscape:path-effect="#path-effect7183"
       inkscape:original-d="m 364.50394,384.07761 0,-19.11698 98.9756,0 0,-12.92608"
       inkscape:connector-curvature="0"
       sodipodi:nodetypes="cccc"
       inkscape:export-xdpi="99"
       inkscape:export-ydpi="99" />
    <path
       style="fill:none;fill-opacity:1;fill-rule:evenodd;stroke:#4d4d4d;stroke-width:1px;stroke-linecap:butt;stroke-linejoin:miter;stroke-opacity:1;marker-end:url(#marker4803-7)"
       d="m 301.96844,417.21317 9.39056,0"
       id="path4639-4"
       inkscape:path-effect="#path-effect4641-5"
       inkscape:original-d="m 301.96844,417.21317 9.39056,0"
       inkscape:connector-curvature="0"
       sodipodi:nodetypes="cc"
       inkscape:export-xdpi="99"
       inkscape:export-ydpi="99" />
    <path
       style="fill:none;fill-opacity:1;fill-rule:evenodd;stroke:#4d4d4d;stroke-width:1px;stroke-linecap:butt;stroke-linejoin:miter;stroke-opacity:1;marker-end:url(#marker4803-7-6)"
       d="m 195.96844,417.21317 9.39056,0"
       id="path4639-4-5"
       inkscape:path-effect="#path-effect4641-5-2"
       inkscape:original-d="m 195.96844,417.21317 9.39056,0"
       inkscape:connector-curvature="0"
       sodipodi:nodetypes="cc"
       inkscape:export-xdpi="99"
       inkscape:export-ydpi="99" />
    <path
       style="fill:none;fill-opacity:1;fill-rule:evenodd;stroke:#4d4d4d;stroke-width:1px;stroke-linecap:butt;stroke-linejoin:miter;stroke-opacity:1;marker-end:url(#marker4803-7-65)"
       d="m 406.88183,416.81947 9.39056,0"
       id="path4639-4-9"
       inkscape:path-effect="#path-effect4641-5-6"
       inkscape:original-d="m 406.88183,416.81947 9.39056,0"
       inkscape:connector-curvature="0"
       sodipodi:nodetypes="cc"
       inkscape:export-xdpi="99"
       inkscape:export-ydpi="99" />
    <path
       style="fill:none;fill-opacity:1;fill-rule:evenodd;stroke:#4d4d4d;stroke-width:1px;stroke-linecap:butt;stroke-linejoin:miter;stroke-opacity:1;marker-end:url(#marker4803-7-3)"
       d="m 511.35427,416.64624 9.39056,0"
       id="path4639-4-1"
       inkscape:path-effect="#path-effect4641-5-3"
       inkscape:original-d="m 511.35427,416.64624 9.39056,0"
       inkscape:connector-curvature="0"
       sodipodi:nodetypes="cc"
       inkscape:export-xdpi="99"
       inkscape:export-ydpi="99" />
    <path
       style="fill:none;fill-rule:evenodd;stroke:#4d4d4d;stroke-width:1px;stroke-linecap:butt;stroke-linejoin:miter;stroke-opacity:1;marker-end:url(#marker11023)"
       d="m 148.8189,486.74916 0,-33.89202"
       id="path11013"
       inkscape:path-effect="#path-effect11015"
       inkscape:original-d="m 148.8189,486.74916 0,-33.89202"
       inkscape:connector-curvature="0"
       sodipodi:nodetypes="cc"
       inkscape:export-xdpi="99"
       inkscape:export-ydpi="99" />
    <path
       style="fill:none;fill-rule:evenodd;stroke:#4d4d4d;stroke-width:1px;stroke-linecap:butt;stroke-linejoin:miter;stroke-opacity:1;marker-end:url(#marker11023-1)"
       d="m 149.1198,641.78903 0,-88.7131"
       id="path11013-6"
       inkscape:path-effect="#path-effect11015-9"
       inkscape:original-d="m 149.1198,641.78903 0,-88.7131"
       inkscape:connector-curvature="0"
       sodipodi:nodetypes="cc"
       inkscape:export-xdpi="99"
       inkscape:export-ydpi="99" />
    <path
       style="fill:none;fill-opacity:1;fill-rule:evenodd;stroke:#4d4d4d;stroke-width:1px;stroke-linecap:butt;stroke-linejoin:miter;stroke-opacity:1;marker-end:url(#marker4803-1)"
       d="m 207.58828,675.93758 -9.39056,0"
       id="path4639-0"
       inkscape:path-effect="#path-effect4641-1"
       inkscape:original-d="m 207.58828,675.93758 -9.39056,0"
       inkscape:connector-curvature="0"
       sodipodi:nodetypes="cc"
       inkscape:export-xdpi="99"
       inkscape:export-ydpi="99" />
    <path
       style="fill:none;fill-rule:evenodd;stroke:#4d4d4d;stroke-width:1px;stroke-linecap:butt;stroke-linejoin:miter;stroke-opacity:1"
       d="m 204.2261,676.77165 0,49.6063 154.47694,0 -0.35714,-20.24465"
       id="path12401"
       inkscape:path-effect="#path-effect12403"
       inkscape:original-d="m 204.2261,676.77165 0,49.6063 154.47694,0 -0.35714,-20.24465"
       inkscape:connector-curvature="0"
       sodipodi:nodetypes="cccc"
       inkscape:export-xdpi="99"
       inkscape:export-ydpi="99" />
    <path
       style="fill:none;fill-opacity:1;fill-rule:evenodd;stroke:#4d4d4d;stroke-width:1px;stroke-linecap:butt;stroke-linejoin:miter;stroke-opacity:1;marker-end:url(#marker4803-1-2)"
       d="m 420.11978,676.37065 -9.39056,0"
       id="path4639-0-8"
       inkscape:path-effect="#path-effect4641-1-3"
       inkscape:original-d="m 420.11978,676.37065 -9.39056,0"
       inkscape:connector-curvature="0"
       sodipodi:nodetypes="cc"
       inkscape:export-xdpi="99"
       inkscape:export-ydpi="99" />
    <path
       style="fill:none;fill-opacity:1;fill-rule:evenodd;stroke:#4d4d4d;stroke-width:1px;stroke-linecap:butt;stroke-linejoin:miter;stroke-opacity:1;marker-end:url(#marker4803-1-1)"
       d="m 525.44655,676.45727 -9.39056,0"
       id="path4639-0-6"
       inkscape:path-effect="#path-effect4641-1-8"
       inkscape:original-d="m 525.44655,676.45727 -9.39056,0"
       inkscape:connector-curvature="0"
       sodipodi:nodetypes="cc"
       inkscape:export-xdpi="99"
       inkscape:export-ydpi="99" />
    <path
       style="fill:none;fill-rule:evenodd;stroke:#4d4d4d;stroke-width:1px;stroke-linecap:butt;stroke-linejoin:miter;stroke-opacity:1;marker-end:url(#marker11023-3)"
       d="m 255.13864,586.869 0.17857,55.86254"
       id="path11013-63"
       inkscape:path-effect="#path-effect11015-1"
       inkscape:original-d="m 255.13864,586.869 0.17857,55.86254"
       inkscape:connector-curvature="0"
       sodipodi:nodetypes="cc"
       inkscape:export-xdpi="99"
       inkscape:export-ydpi="99" />
    <path
       style="fill:none;fill-rule:evenodd;stroke:#4d4d4d;stroke-width:1px;stroke-linecap:butt;stroke-linejoin:miter;stroke-opacity:1;marker-end:url(#marker7195-9)"
       d="m 253.2441,486.22047 0,-21.25984 98.9756,0 0,-12.92608"
       id="path7181-2"
       inkscape:path-effect="#path-effect7183-0"
       inkscape:original-d="m 253.2441,486.22047 0,-21.25984 98.9756,0 0,-12.92608"
       inkscape:connector-curvature="0"
       sodipodi:nodetypes="cccc"
       inkscape:export-xdpi="99"
       inkscape:export-ydpi="99" />
    <path
       style="fill:none;fill-rule:evenodd;stroke:#4d4d4d;stroke-width:1px;stroke-linecap:butt;stroke-linejoin:miter;stroke-opacity:1;marker-end:url(#marker11023-3-5)"
       d="m 568.00479,587.04222 0.17857,55.47527"
       id="path11013-63-6"
       inkscape:path-effect="#path-effect11015-1-3"
       inkscape:original-d="m 568.00479,587.04222 0.17857,55.47527"
       inkscape:connector-curvature="0"
       sodipodi:nodetypes="cc"
       inkscape:export-xdpi="99"
       inkscape:export-ydpi="99" />
    <path
       style="fill:none;fill-rule:evenodd;stroke:#4d4d4d;stroke-width:1px;stroke-linecap:butt;stroke-linejoin:miter;stroke-opacity:1;marker-end:url(#TriangleOutL-2)"
       d="m 364.15748,447.49163 0,17.20129 98.9756,0.25254 0.25254,15.19893"
       id="path4517-0"
       inkscape:path-effect="#path-effect4519-4"
       inkscape:original-d="m 364.15748,447.49163 0,17.20129 98.9756,0.25254 0.25254,15.19893"
       inkscape:connector-curvature="0"
       sodipodi:nodetypes="cccc"
       inkscape:export-xdpi="99"
       inkscape:export-ydpi="99" />
    <path
       style="fill:none;fill-rule:evenodd;stroke:#4d4d4d;stroke-width:1px;stroke-linecap:butt;stroke-linejoin:miter;stroke-opacity:1"
       d="m 148.8189,563.38583 420.82119,0 -1.06169,-113.38587"
       id="path19154"
       inkscape:path-effect="#path-effect19156"
       inkscape:original-d="m 148.8189,563.38583 420.82119,0 -1.06169,-113.38587"
       inkscape:connector-curvature="0"
       inkscape:export-xdpi="99"
       inkscape:export-ydpi="99"
       sodipodi:nodetypes="ccc" />
    <path
       style="fill:none;fill-opacity:1;fill-rule:evenodd;stroke:#4d4d4d;stroke-width:1px;stroke-linecap:butt;stroke-linejoin:miter;stroke-opacity:1;marker-end:url(#marker4803-0)"
       d="m 314.13496,519.68111 -9.39056,0"
       id="path4639-5"
       inkscape:path-effect="#path-effect4641-0"
       inkscape:original-d="m 314.13496,519.68111 -9.39056,0"
       inkscape:connector-curvature="0"
       sodipodi:nodetypes="cc"
       inkscape:export-xdpi="99"
       inkscape:export-ydpi="99" />
    <path
       style="fill:none;fill-opacity:1;fill-rule:evenodd;stroke:#4d4d4d;stroke-width:1px;stroke-linecap:butt;stroke-linejoin:miter;stroke-opacity:1;marker-end:url(#marker4803-6-3)"
       d="m 419.22158,519.68111 -9.39056,0"
       id="path4639-7-3"
       inkscape:path-effect="#path-effect4641-68-5"
       inkscape:original-d="m 419.22158,519.68111 -9.39056,0"
       inkscape:connector-curvature="0"
       sodipodi:nodetypes="cc"
       inkscape:export-xdpi="99"
       inkscape:export-ydpi="99" />
  </g>
</svg>
