<?xml version="1.0" encoding="utf-8"?>
<!-- Generator: Adobe Illustrator 14.0.0, SVG Export Plug-In . SVG Version: 6.00 Build 43363)  -->
<!DOCTYPE svg PUBLIC "-//W3C//DTD SVG 1.1//EN" "http://www.w3.org/Graphics/SVG/1.1/DTD/svg11.dtd">
<svg version="1.1" id="Layer_1" xmlns="http://www.w3.org/2000/svg" xmlns:xlink="http://www.w3.org/1999/xlink" x="0px" y="0px"
	 width="52px" height="52px" viewBox="0 -3 52 52" enable-background="new 0 -3 52 52" xml:space="preserve">
<g>
	<path d="M11.334,16.626c-0.003,1.728,0.275,3.404,0.797,5.008l1.761-1.372c-0.46-1.701-0.61-3.452-0.414-5.228
		c0.36-3.256,1.857-6.317,4.224-8.627l0.08-0.083c0.275-0.263,0.571-0.511,0.824-0.72l0.305-0.249
		c0.176-0.137,0.361-0.267,0.541-0.391l0.176-0.124c0.177-0.121,0.354-0.244,0.54-0.356l0.373-0.218
		c0.291-0.169,0.637-0.361,1.018-0.54c1.933-0.912,4.082-1.394,6.219-1.394c2.553,0,5.068,0.681,7.277,1.974
		c0.753,0.44,1.449,0.94,2.092,1.488l-2.852,2.66l5.857,0.914c2.053,3.468,2.59,7.744,1.233,11.808l1.582,1.755l0.095-0.235
		c0.514-1.279,0.86-2.625,1.035-4.008l0.057-0.046l0.035-0.314c0.383-3.599-0.461-7.047-2.177-9.96l-0.805-6.362l-2.511,2.341
		c-2.465-2.172-5.592-3.645-9.104-4.028c-0.595-0.063-1.195-0.096-1.783-0.096c-2.469,0-4.862,0.544-7.104,1.614l-0.109,0.05
		c-0.352,0.171-0.705,0.358-1.074,0.573c-0.161,0.092-0.318,0.183-0.48,0.281c-0.225,0.14-0.439,0.286-0.65,0.433
		c-0.307,0.208-0.556,0.388-0.79,0.569l-0.307,0.25c-0.357,0.291-0.674,0.57-0.984,0.865l-0.065,0.065
		c-1.076,1.041-1.986,2.187-2.706,3.406c-1.331,2.239-2.086,4.692-2.244,7.294l-0.011,0.184l0.02,0.826L11.334,16.626z"/>
	<polygon points="32.748,10.988 32.742,10.981 32.736,10.976 	"/>
	<polygon points="22.947,20.219 22.945,20.217 22.941,20.212 	"/>
	<path d="M51.771,35.477c-0.024-0.096-0.061-0.199-0.101-0.312c-0.054-0.145-0.073-0.197-0.129-0.314v-0.002l-0.034-0.072
		c-0.005-0.012-0.01-0.02-0.016-0.028c-0.035-0.072-0.075-0.149-0.107-0.211c-0.052-0.106-0.084-0.164-0.172-0.292l-0.008-0.014
		c-0.018-0.025-0.036-0.057-0.057-0.086l-0.047-0.062c-0.035-0.054-0.072-0.103-0.104-0.146c-0.008-0.01-0.016-0.021-0.021-0.026
		L50.973,33.9c-0.003-0.002-0.006-0.006-0.008-0.008c-0.062-0.082-0.137-0.168-0.195-0.238c-0.154-0.176-0.344-0.385-0.555-0.618
		c-3.295-4.074-4.841-5.614-8.422-9.437c-0.268-0.298-0.521-0.583-0.77-0.857c-0.225-0.252-0.451-0.505-0.673-0.754
		c-0.028-0.036-0.587-0.687-0.616-0.72c-1.134-1.279-2.222-2.523-3.222-3.699c-0.627-0.753-0.933-1.156-1.086-1.388
		c-0.091-0.195-0.172-0.394-0.255-0.593c-0.01-0.033-0.02-0.066-0.025-0.102c-0.017-0.059-0.029-0.12-0.041-0.182
		c-0.019-0.071-0.033-0.143-0.051-0.216c-0.016-0.073-0.033-0.147-0.051-0.224c-0.021-0.076-0.037-0.157-0.059-0.235
		c0-0.009-0.004-0.02-0.008-0.03c-0.01-0.039-0.021-0.084-0.033-0.13c-0.016-0.05-0.027-0.102-0.041-0.152
		c-0.016-0.053-0.029-0.104-0.043-0.149l-0.021-0.08c-0.02-0.058-0.037-0.12-0.059-0.179l-0.004-0.017
		c0-0.003-0.004-0.009-0.004-0.012c-0.01-0.028-0.021-0.06-0.027-0.086l0.005,0.018l-0.011-0.025
		c-0.019-0.052-0.037-0.105-0.059-0.157l-0.008-0.02l-0.004-0.014c-0.033-0.084-0.071-0.17-0.109-0.259l-0.009-0.02
		c-0.002-0.002-0.004-0.007-0.007-0.011c-0.037-0.086-0.08-0.173-0.124-0.26c-0.004-0.011-0.008-0.02-0.013-0.027l-0.006-0.007
		c-0.051-0.098-0.104-0.198-0.166-0.3c-0.017-0.027-0.029-0.05-0.047-0.075l0.021,0.028l-0.024-0.041
		c-0.029-0.048-0.06-0.098-0.093-0.146l-0.012-0.021c-0.003-0.002-0.007-0.007-0.009-0.009c-0.008-0.014-0.018-0.025-0.023-0.038
		c-0.002-0.004-0.005-0.009-0.008-0.011v-0.003c-0.074-0.109-0.152-0.214-0.227-0.312L33.77,12.08c0-0.005-0.005-0.009-0.009-0.014
		C33.71,12,33.66,11.938,33.611,11.878c-0.074-0.096-0.158-0.191-0.242-0.286c-0.051-0.053-0.098-0.102-0.137-0.147l-0.021-0.021
		c-0.042-0.051-0.113-0.112-0.157-0.16l-0.029-0.025c-0.063-0.064-0.109-0.105-0.129-0.123l-0.007-0.003
		c-0.042-0.036-0.092-0.078-0.137-0.114c-0.004-0.005-0.011-0.011-0.015-0.016c-0.006-0.005-0.015-0.012-0.021-0.016l-0.177-0.139
		c-0.014-0.005-0.021-0.016-0.034-0.024c-0.021-0.012-0.04-0.026-0.062-0.042c-0.029-0.021-0.061-0.045-0.086-0.062l-0.187-0.125
		l-0.067-0.041c-0.013-0.007-0.022-0.014-0.033-0.019l-0.01-0.007l-0.065-0.038c-0.005-0.003-0.013-0.009-0.019-0.011l-0.057-0.032
		l-0.053-0.032c0.01,0.005,0.017,0.011,0.025,0.016l-0.113-0.062c-0.057-0.036-0.14-0.071-0.198-0.102l-0.203-0.095
		c-0.06-0.037-0.146-0.062-0.207-0.089l-0.06-0.026l-0.055-0.023c0.008,0.003,0.014,0.007,0.021,0.011l-0.115-0.047
		c0,0-0.005-0.002-0.01-0.002c-0.067-0.025-0.133-0.048-0.2-0.07l-0.007-0.002L30.714,9.89c-0.081-0.024-0.163-0.048-0.242-0.071
		L30.439,9.81l-0.05-0.014c-0.022-0.005-0.046-0.01-0.065-0.018l-0.006-0.002l-0.014-0.001c-0.023-0.006-0.053-0.014-0.072-0.02
		l-0.014-0.003c0,0,0.005,0.001,0.01,0.003c-0.018-0.003-0.027-0.007-0.041-0.011l-0.094-0.023c-0.012,0-0.021-0.004-0.033-0.006
		c-0.052-0.009-0.1-0.02-0.146-0.028c-0.015-0.003-0.03-0.007-0.046-0.012l-0.229-0.039l-0.062-0.011L29.451,9.61
		c-0.014-0.004-0.024-0.005-0.039-0.007l-0.027-0.002l-0.025-0.004h0.012l-0.018-0.001h0.002l-0.168-0.021
		c-0.076-0.006-0.182-0.016-0.297-0.022H28.88l-0.017-0.002c-0.047-0.002-0.098-0.005-0.151-0.007c-0.022,0-0.047-0.001-0.071-0.001
		c-0.023-0.002-0.045-0.002-0.068-0.002c-0.092-0.011-0.215,0-0.31,0l-0.312,0.011c-0.09-0.009-0.215,0.016-0.309,0.024
		c-0.016,0.001-0.027,0.001-0.042,0.005c-0.069,0.007-0.147,0.016-0.233,0.026l-0.03,0.005h-0.004
		c-0.013,0.002-0.021,0.003-0.034,0.003c-0.025,0.004-0.052,0.007-0.073,0.011l0.017-0.002c-0.065,0.011-0.137,0.021-0.209,0.034
		c-0.094,0.016-0.186,0.036-0.269,0.051l-0.036,0.009c-0.094-0.011-0.209,0.051-0.299,0.071l-0.058,0.014
		c-0.09,0.022-0.18,0.045-0.268,0.072c-0.057,0.003-0.119,0.03-0.18,0.056c-0.338,0.109-0.662,0.243-0.964,0.396
		c-0.029,0.005-0.057,0.018-0.084,0.038c-0.047,0.019-0.09,0.045-0.137,0.073c-0.375,0.209-0.713,0.452-1.027,0.718
		c-0.012,0.011-0.024,0.021-0.034,0.031c-0.095,0.082-0.186,0.167-0.273,0.253c-0.036,0.032-0.065,0.063-0.095,0.095
		c-0.071,0.071-0.139,0.145-0.205,0.218c-0.044,0.047-0.085,0.095-0.126,0.145c-0.018,0.021-0.037,0.042-0.052,0.062
		c-0.039,0.045-0.073,0.089-0.109,0.137c-0.045,0.058-0.09,0.116-0.133,0.177c-0.044,0.064-0.088,0.125-0.13,0.191
		c-0.042,0.063-0.082,0.125-0.12,0.191c-0.043,0.064-0.086,0.136-0.125,0.207c-0.029,0.056-0.06,0.111-0.088,0.168
		c-0.046,0.084-0.087,0.167-0.127,0.252c-0.01,0.016-0.019,0.034-0.025,0.053c-0.024,0.054-0.048,0.109-0.071,0.164
		c-0.026,0.06-0.051,0.12-0.074,0.183c-0.042,0.102-0.08,0.204-0.115,0.309c-0.01,0.029-0.018,0.055-0.03,0.086
		c-0.043,0.134-0.08,0.268-0.116,0.404c0,0.003,0,0.007-0.003,0.011c-0.11,0.437-0.175,0.882-0.194,1.326
		c0,0.011-0.002,0.022-0.002,0.036c-0.003,0.105-0.003,0.214-0.003,0.319c0,0.059,0,0.116,0.003,0.172
		c0.002,0.042,0.006,0.083,0.007,0.123c0.021,0.382,0.074,0.762,0.163,1.13c0,0.005,0.001,0.007,0.001,0.012
		c0.005,0.013,0.005,0.025,0.01,0.036c0.034,0.15,0.066,0.271,0.093,0.359c0.011,0.042,0.027,0.087,0.042,0.134
		c0.017,0.046,0.03,0.09,0.045,0.134l0.033,0.109c0.006,0.011,0.01,0.022,0.016,0.032c0.003,0.011,0.007,0.024,0.012,0.035
		c0.004,0.012,0.01,0.028,0.014,0.039l0.036,0.077c0.021,0.055,0.042,0.107,0.064,0.159c0.024,0.059,0.051,0.112,0.076,0.166
		l0.027,0.064c0.061,0.141,0.161,0.318,0.242,0.45c0.04,0.066,0.089,0.143,0.142,0.218l0.006,0.014
		c0.013,0.018,0.027,0.041,0.041,0.058c0.001,0.003,0.004,0.009,0.007,0.012c0.031,0.043,0.06,0.086,0.089,0.121
		c0.055,0.079,0.132,0.168,0.205,0.257c0.007,0.008,0.016,0.017,0.022,0.027c0.032,0.038,0.062,0.073,0.088,0.105l0.012,0.013
		c0.083,0.103,0.208,0.215,0.311,0.313l0.034,0.036c0.05,0.045,0.115,0.103,0.166,0.146c0.021,0.018,0.042,0.033,0.061,0.049
		c0.228,0.191,0.445,0.353,0.659,0.489c-0.013-0.009-0.027-0.016-0.042-0.023l0.032,0.02c0.006,0.005,0.012,0.009,0.02,0.012
		c0.113,0.071,0.223,0.139,0.333,0.198v0.002c0.013,0.007,0.025,0.01,0.036,0.02c0.104,0.056,0.208,0.106,0.307,0.155
		c0.011,0.005,0.027,0.013,0.039,0.02c0.022,0.011,0.047,0.02,0.07,0.032c0.008,0.001,0.017,0.005,0.021,0.009
		c0.262,0.141,0.529,0.278,0.796,0.409c0.841,0.435,1.68,0.878,2.389,1.514c0.264,0.25,0.536,0.512,0.813,0.779
		c1.188,1.146,2.353,2.314,3.505,3.498c4.404,4.535,7.061,7.633,11.852,11.785c0.019,0.02,0.039,0.039,0.061,0.062
		c0.011,0.005,0.018,0.015,0.023,0.021l0.014,0.014c0.033,0.029,0.07,0.061,0.104,0.091l0.008,0.007l0.002,0.002
		c0.045,0.039,0.09,0.075,0.123,0.104l0.133,0.104c0.031,0.036,0.095,0.065,0.134,0.096c0.038,0.023,0.169,0.115,0.272,0.177
		c0.039,0.022,0.094,0.06,0.137,0.079l0.004,0.002l0.142,0.074l0.146,0.069c0.041,0.026,0.102,0.048,0.146,0.065l0.065,0.025
		c0.021,0.008,0.039,0.019,0.062,0.025l0.009,0.004c0.254,0.117,0.476,0.164,0.752,0.221c0,0-0.013-0.002-0.019-0.002l0.032,0.006
		l0.068,0.015c0.006,0,0.012,0.004,0.019,0.004l0.065,0.013l0.074,0.014c0,0,0.014,0,0.021,0.002l0.06,0.009l0.05,0.008
		c0.041,0.005,0.077,0.01,0.106,0.01c0.011,0.003,0.071,0.009,0.17,0.015l0.01,0.002h0.019c0.046,0.004,0.095,0.006,0.15,0.006
		h0.014c0.054,0.008,0.129,0,0.185,0c0.054-0.002,0.128,0.012,0.181-0.008c0.021-0.01,0.049-0.01,0.078-0.012l0.018-0.003
		c0.027,0,0.062,0,0.084,0l0.181-0.022c0.056,0.005,0.129-0.021,0.181-0.032l0.178-0.035c0.057,0.007,0.123-0.03,0.179-0.045
		l0.086-0.024c0.015-0.004,0.026-0.011,0.041-0.015l0.049-0.015c0.056,0.006,0.12-0.041,0.173-0.062l0.17-0.067
		c0.055,0.006,0.118-0.055,0.168-0.074l0.168-0.084c0,0,0.019-0.008,0.053-0.025c0.039-0.021,0.078-0.047,0.109-0.064l0.006-0.004
		v0.002c0.006-0.002,0.01-0.004,0.015-0.008c0.022-0.018,0.052-0.033,0.082-0.053c0.026-0.018,0.056-0.035,0.081-0.053
		c0.438-0.271,0.818-0.624,1.121-1.04c0.009-0.011,0.015-0.021,0.021-0.026c0.098-0.145,0.188-0.285,0.27-0.439
		C51.395,38.812,52.451,37.947,51.771,35.477z M30.977,16.178c-0.224,1.843-1.904,3.157-3.761,2.938
		c-1.854-0.22-3.18-1.892-2.958-3.734c0.223-1.845,1.905-3.161,3.759-2.94C29.872,12.661,31.199,14.333,30.977,16.178z"/>
	<path d="M51.165,34.165L51.122,34.1c0.01,0.018,0.02,0.028,0.028,0.045L51.165,34.165z"/>
	<path d="M22.535,33.861c0.979-1.329,2.011-2.709,3.051-4.075c1.039-1.354,1.986-2.558,2.87-3.658
		c-0.378-0.373-0.751-0.749-1.13-1.112c-0.254-0.244-0.504-0.482-0.75-0.716c-0.527-0.474-1.176-0.82-1.967-1.231
		c-0.237-0.118-0.483-0.243-0.73-0.373c-0.021-0.009-0.089-0.041-0.089-0.041l-0.034-0.018c-0.101-0.048-0.198-0.096-0.293-0.148
		l-0.012-0.005l-0.074-0.041c-0.115-0.062-0.234-0.135-0.354-0.21L22.94,22.18h0.003c-0.231-0.152-0.466-0.329-0.696-0.521
		c-0.03-0.022-0.056-0.042-0.079-0.064c-0.042-0.036-0.089-0.08-0.137-0.12l-0.073-0.066l-0.05-0.049l-0.037-0.036
		c-0.104-0.099-0.231-0.22-0.346-0.359l-0.006-0.009l-0.074-0.089l-0.026-0.033c-0.086-0.102-0.172-0.205-0.241-0.296
		c-0.028-0.041-0.061-0.084-0.094-0.134l-0.038-0.055l-0.025-0.033l-0.029-0.05c-0.052-0.079-0.103-0.156-0.143-0.227
		c-0.135-0.22-0.24-0.414-0.312-0.58l-0.02-0.045c-0.027-0.059-0.054-0.116-0.081-0.179c-0.02-0.049-0.045-0.105-0.066-0.161
		l-0.046-0.107l-0.022-0.07l-0.02-0.043c0,0-0.082-0.243-0.094-0.286c-0.011-0.041-0.03-0.096-0.046-0.148
		c-0.031-0.1-0.068-0.237-0.104-0.402l-0.018-0.07c-0.061-0.261-0.103-0.536-0.136-0.812c-1.712,1.366-3.51,2.779-5.281,4.155
		c-0.902,0.703-1.827,1.416-2.755,2.135c-0.136,0.104-0.271,0.207-0.405,0.309c-0.155,0.123-0.313,0.242-0.468,0.359
		c-0.104,0.084-0.208,0.163-0.315,0.244c-0.186,0.145-0.374,0.288-0.561,0.432c-0.054,0.041-0.105,0.082-0.16,0.121
		c-0.226,0.174-0.448,0.346-0.668,0.512c-0.054,0.043-0.105,0.082-0.163,0.125c-0.218,0.168-0.437,0.334-0.645,0.494
		c-0.018,0.014-0.034,0.026-0.051,0.041c-0.503,0.383-0.987,0.75-1.442,1.097c-0.026,0.021-0.051,0.038-0.078,0.062
		c-0.201,0.153-0.403,0.307-0.594,0.452c-0.091,0.07-0.176,0.134-0.27,0.204c-0.127,0.1-0.259,0.195-0.382,0.29
		c-0.2,0.149-0.393,0.298-0.577,0.435c-0.263,0.201-0.511,0.39-0.736,0.56c-0.717,0.542-1.272,0.962-1.617,1.218
		c-0.005,0.007-0.011,0.014-0.02,0.02c-0.115,0.115-0.222,0.229-0.319,0.336H2.373c-0.058,0.066-0.114,0.133-0.167,0.189
		c-0.004,0.006-0.007,0.008-0.008,0.012H2.194c-0.037,0.045-0.074,0.086-0.105,0.127c-0.225,0.258-0.374,0.467-0.617,0.84
		c0.004-0.006,0.008-0.012,0.012-0.018c-0.048,0.074-0.093,0.145-0.135,0.211c-0.005,0.008-0.009,0.014-0.015,0.02l-0.005,0.013
		c-0.218,0.358-0.345,0.615-0.345,0.619c-0.002,0.004-0.002,0.006-0.005,0.01c-0.027,0.06-0.06,0.128-0.091,0.197
		c-0.042,0.084-0.082,0.176-0.122,0.265c-0.028,0.064-0.056,0.124-0.08,0.18L0.68,33.419c-0.021,0.037-0.032,0.078-0.046,0.116
		c-0.009,0.02-0.017,0.035-0.024,0.056c-0.001,0.002-0.002,0.005-0.002,0.007c-0.036,0.09-0.067,0.178-0.097,0.264
		c-0.023,0.064-0.044,0.134-0.065,0.199c-0.002,0.002-0.004,0.006-0.004,0.01c-0.001,0.004-0.002,0.006-0.002,0.012
		c-0.019,0.048-0.034,0.102-0.05,0.152c0,0.002-0.002,0.006-0.002,0.006c-0.001,0.004-0.001,0.006-0.002,0.008
		c-0.035,0.122-0.069,0.242-0.102,0.367c-0.186,0.688-0.269,1.342-0.278,1.938c-0.023,0.623,0.021,1.209,0.113,1.754
		c0.002,0.019,0.004,0.033,0.006,0.051c0.005,0.028,0.01,0.057,0.017,0.086c0.01,0.072,0.026,0.146,0.041,0.219
		c0.066,0.335,0.15,0.656,0.251,0.97c0.03,0.128,0.089,0.276,0.143,0.414c0.018,0.047,0.034,0.088,0.053,0.134
		c0.011,0.027,0.021,0.053,0.032,0.081c0.003,0.009,0.007,0.021,0.01,0.028l0.011,0.016c0.013,0.037,0.025,0.072,0.042,0.107
		c0.005,0.015,0.011,0.027,0.018,0.042c0.007,0.017,0.015,0.032,0.021,0.05c0.003,0.006,0.006,0.012,0.009,0.016
		c0.058,0.133,0.122,0.274,0.195,0.42c0.036,0.074,0.078,0.156,0.123,0.237c0.198,0.39,0.409,0.733,0.634,1.037
		c0.012,0.193,0.284,0.363,0.426,0.521c0.015,0.018,0.033,0.035,0.049,0.053l0.002,0.006c0.038,0.04,0.074,0.083,0.114,0.127
		c-0.012-0.009-0.022-0.021-0.032-0.029c0.037,0.039,0.085,0.092,0.12,0.131c0.008,0.004,0.013,0.012,0.019,0.018
		c0.15,0.165,0.32,0.342,0.501,0.508c0,0,5.131,4.568,11.139,1.094c0.301-0.176,0.47-0.305,0.669-0.457
		c0.006-0.002,0.012-0.008,0.018-0.01l0.068-0.055c0.054-0.043,0.109-0.086,0.167-0.133c0.031-0.021,0.06-0.049,0.094-0.072
		c0.1-0.077,0.174-0.145,0.286-0.248c0.013-0.01,0.025-0.021,0.039-0.031l0.306-0.291v-0.002h0.001
		c0.194-0.271,0.378-0.535,0.564-0.802c0.271-0.38,0.623-0.88,1.047-1.476c1.842-2.56,3.114-4.32,4.035-5.596
		C21.74,34.941,22.131,34.406,22.535,33.861z"/>
	<path d="M0.61,33.593c0-0.001,0.001-0.002,0.001-0.003c0.002-0.007,0.005-0.013,0.006-0.02C0.616,33.576,0.612,33.587,0.61,33.593z
		"/>
	<path d="M0.77,40.516c-0.001-0.005-0.004-0.01-0.006-0.014s-0.003-0.008-0.006-0.011C0.763,40.498,0.768,40.508,0.77,40.516z"/>
	<path d="M35.006,42.164l-4.281-2.455v-4.875c1.028-0.324,0.92-1.148,0.92-1.148l-1.857-5.291l-1.856,5.291
		c0,0-0.108,0.826,0.92,1.149v4.923l-4.244,2.428c-0.801-0.736-1.472-0.203-1.472-0.203l-3.683,4.242l5.54-1.048
		c0,0.003,0.777-0.319,0.542-1.37l4.296-2.459l4.251,2.438c-0.232,1.046,0.543,1.366,0.543,1.366l5.54,1.049l-3.684-4.244
		C36.48,41.956,35.809,41.422,35.006,42.164z"/>
</g>
</svg>
