<?xml version="1.0" encoding="utf-8"?>
<!-- Generator: Adobe Illustrator 14.0.0, SVG Export Plug-In . SVG Version: 6.00 Build 43363)  -->
<!DOCTYPE svg PUBLIC "-//W3C//DTD SVG 1.1//EN" "http://www.w3.org/Graphics/SVG/1.1/DTD/svg11.dtd">
<svg version="1.1" id="Layer_1" xmlns="http://www.w3.org/2000/svg" xmlns:xlink="http://www.w3.org/1999/xlink" x="0px" y="0px"
	 width="28px" height="28px" viewBox="0 -4 28 28" enable-background="new 0 -4 28 28" xml:space="preserve">
<g>
	<path d="M28,14.009c-0.973-1.078-1.951-2.104-3.349-3.599c-0.196-0.222-0.386-0.432-0.565-0.634
		c-0.166-0.187-0.336-0.375-0.496-0.56c-0.023-0.024-0.438-0.507-0.461-0.532c-0.836-0.947-1.642-1.868-2.381-2.738
		c-0.461-0.556-0.688-0.854-0.802-1.027c-0.063-0.145-0.127-0.291-0.187-0.439c-0.008-0.025-0.014-0.048-0.021-0.074
		c-0.011-0.044-0.021-0.09-0.03-0.136c-0.012-0.052-0.024-0.105-0.037-0.158c-0.01-0.056-0.021-0.111-0.037-0.169
		c-0.012-0.056-0.027-0.114-0.041-0.174c-0.002-0.006-0.004-0.016-0.006-0.021c-0.006-0.03-0.015-0.062-0.022-0.097
		c-0.015-0.039-0.022-0.077-0.032-0.115c-0.012-0.038-0.021-0.076-0.031-0.109l-0.018-0.058c-0.013-0.046-0.025-0.09-0.042-0.134
		l-0.006-0.012c0-0.004,0-0.007-0.002-0.009c-0.009-0.021-0.015-0.042-0.021-0.065l0.004,0.016l-0.006-0.02
		c-0.017-0.039-0.029-0.079-0.046-0.117l-0.007-0.016L19.357,3c-0.025-0.061-0.053-0.125-0.081-0.189l-0.006-0.016
		c-0.002-0.002-0.002-0.006-0.004-0.008c-0.027-0.061-0.058-0.124-0.093-0.191c-0.004-0.008-0.006-0.014-0.01-0.021l-0.006-0.006
		c-0.037-0.073-0.076-0.145-0.119-0.221c-0.014-0.021-0.023-0.038-0.033-0.058l0.012,0.023L19,2.282
		c-0.022-0.036-0.047-0.074-0.066-0.108l-0.012-0.016c-0.002-0.002-0.004-0.006-0.004-0.006c-0.008-0.01-0.016-0.02-0.021-0.029
		c-0.003-0.001-0.003-0.005-0.003-0.005L18.89,2.116c-0.054-0.083-0.111-0.161-0.165-0.233l-0.001-0.001
		c-0.002-0.004-0.007-0.008-0.009-0.012c-0.037-0.048-0.074-0.094-0.11-0.14c-0.056-0.068-0.115-0.14-0.179-0.21
		c-0.036-0.039-0.069-0.075-0.104-0.109l-0.015-0.016c-0.03-0.038-0.083-0.082-0.117-0.118L18.17,1.259
		c-0.049-0.048-0.084-0.078-0.098-0.092L18.07,1.164c-0.031-0.024-0.066-0.056-0.102-0.084c-0.004-0.006-0.012-0.01-0.016-0.016
		c0.002,0.004,0.004,0.005,0.008,0.01c-0.006-0.006-0.014-0.012-0.019-0.018L17.81,0.954c-0.007-0.005-0.017-0.014-0.024-0.02
		c-0.014-0.01-0.027-0.02-0.041-0.03c-0.022-0.018-0.046-0.032-0.066-0.048l-0.137-0.092l-0.047-0.029
		c-0.009-0.006-0.018-0.009-0.023-0.014l-0.008-0.006l-0.049-0.028c-0.004-0.002-0.009-0.006-0.015-0.008l-0.038-0.023L17.32,0.635
		c0.008,0.002,0.016,0.008,0.021,0.012L17.26,0.601c-0.043-0.027-0.103-0.054-0.146-0.077l-0.153-0.071
		c-0.041-0.026-0.105-0.046-0.151-0.064l-0.045-0.02l-0.04-0.016c0.004,0.002,0.01,0.006,0.018,0.008l-0.091-0.034l-0.006-0.001
		c-0.052-0.018-0.101-0.036-0.149-0.052l-0.002-0.002l-0.031-0.009c-0.06-0.02-0.121-0.037-0.181-0.054l-0.021-0.008l-0.039-0.01
		c-0.016-0.004-0.031-0.01-0.049-0.014H16.17l-0.01-0.004c-0.019-0.004-0.035-0.01-0.056-0.014l-0.008-0.002
		c0,0.002,0.004,0.002,0.004,0.002c-0.011-0.002-0.019-0.005-0.026-0.005l-0.068-0.018c0,0-0.021-0.004-0.027-0.006
		c-0.035-0.008-0.07-0.016-0.104-0.021c-0.013-0.003-0.022-0.005-0.031-0.009l-0.172-0.028l-0.045-0.006L15.53,0.053
		c-0.009-0.002-0.019-0.004-0.026-0.006l-0.021-0.002l-0.023-0.002h0.015L15.332,0.03c-0.056-0.006-0.131-0.012-0.217-0.015
		c-0.004-0.002-0.008-0.002-0.008-0.002h-0.014c-0.036-0.004-0.072-0.004-0.112-0.006c-0.019,0-0.035-0.002-0.052-0.002
		c-0.018,0-0.035,0-0.053-0.002c-0.067-0.006-0.16,0-0.229,0l-0.228,0.01c-0.068-0.008-0.158,0.011-0.228,0.017
		c-0.01,0.002-0.021,0.002-0.029,0.004c-0.055,0.006-0.111,0.011-0.175,0.021l-0.021,0.001l-0.005,0.002
		c-0.009,0-0.018,0-0.022,0.002c-0.021,0.002-0.04,0.005-0.055,0.007h0.011c-0.049,0.006-0.101,0.014-0.154,0.022
		c-0.068,0.012-0.136,0.027-0.196,0.039l-0.027,0.006c-0.068-0.006-0.155,0.038-0.222,0.054L13.256,0.2
		c-0.067,0.018-0.133,0.032-0.198,0.051c-0.042,0.004-0.088,0.021-0.132,0.042c-0.252,0.083-0.49,0.181-0.715,0.293
		c-0.021,0.005-0.042,0.016-0.062,0.026c-0.033,0.018-0.066,0.035-0.101,0.056C11.77,0.822,11.52,1.002,11.289,1.2
		c-0.01,0.009-0.019,0.016-0.026,0.022c-0.069,0.061-0.138,0.124-0.201,0.187c-0.024,0.022-0.048,0.046-0.071,0.071
		c-0.052,0.051-0.102,0.106-0.15,0.16c-0.031,0.037-0.062,0.071-0.091,0.107c-0.014,0.015-0.028,0.032-0.04,0.046
		c-0.027,0.034-0.053,0.066-0.078,0.102c-0.035,0.044-0.066,0.088-0.101,0.132c-0.032,0.048-0.065,0.094-0.097,0.142
		c-0.032,0.048-0.06,0.094-0.088,0.14c-0.031,0.052-0.061,0.103-0.092,0.155c-0.022,0.041-0.045,0.084-0.066,0.125
		c-0.033,0.062-0.063,0.125-0.096,0.187c-0.006,0.014-0.013,0.026-0.02,0.04c-0.018,0.04-0.033,0.081-0.052,0.121
		c-0.02,0.044-0.038,0.09-0.056,0.134c-0.03,0.077-0.059,0.153-0.083,0.228C9.875,3.321,9.864,3.343,9.859,3.363
		c-0.032,0.1-0.061,0.199-0.087,0.301c0,0,0,0.004-0.001,0.006c-0.083,0.323-0.13,0.652-0.143,0.98
		C9.628,4.66,9.628,4.668,9.626,4.678C9.622,4.756,9.622,4.834,9.624,4.912c0,0.044,0,0.086,0.001,0.128
		c0.002,0.03,0.006,0.061,0.008,0.092c0.015,0.283,0.054,0.563,0.12,0.837c0,0.002,0.001,0.004,0.001,0.008
		c0.002,0.01,0.004,0.02,0.007,0.026c0.025,0.111,0.05,0.201,0.068,0.265c0.011,0.031,0.021,0.065,0.032,0.1
		c0.011,0.034,0.021,0.067,0.032,0.1L9.92,6.549c0.002,0.008,0.005,0.016,0.009,0.022c0.003,0.01,0.005,0.02,0.009,0.027
		c0.005,0.009,0.008,0.019,0.011,0.028l0.026,0.058c0.013,0.04,0.03,0.078,0.046,0.114c0.021,0.044,0.035,0.084,0.058,0.124
		l0.021,0.05c0.043,0.103,0.12,0.235,0.179,0.331c0.03,0.05,0.065,0.106,0.104,0.163l0.006,0.01c0.01,0.014,0.021,0.03,0.03,0.042
		c0.001,0.004,0.002,0.008,0.006,0.01c0.021,0.033,0.044,0.062,0.062,0.092c0.042,0.057,0.099,0.123,0.15,0.187
		c0.006,0.006,0.014,0.016,0.02,0.022c0.023,0.026,0.045,0.054,0.066,0.076l-0.007-0.004l0.013,0.014
		c0.062,0.075,0.152,0.159,0.229,0.231l0.025,0.027c0.035,0.032,0.084,0.076,0.121,0.108c0.017,0.012,0.03,0.022,0.045,0.036
		c0.167,0.142,0.33,0.261,0.486,0.362c-0.01-0.006-0.021-0.012-0.03-0.018l0.022,0.016c0.004,0.002,0.01,0.005,0.015,0.007
		c0.083,0.054,0.165,0.103,0.245,0.147l0.002,0.002c0.008,0.004,0.018,0.01,0.026,0.014c0.074,0.042,0.151,0.079,0.225,0.114
		c0.009,0.004,0.021,0.01,0.029,0.016c0.018,0.008,0.035,0.016,0.052,0.022c0.005,0.002,0.012,0.006,0.016,0.008
		c0.194,0.103,0.392,0.205,0.589,0.302c0.623,0.321,1.24,0.65,1.765,1.122c0.195,0.186,0.396,0.379,0.603,0.578
		c0.882,0.846,1.739,1.715,2.59,2.59c1.91,1.971,3.38,3.571,4.979,5.184C24.838,17.585,26.627,15.956,28,14.009z M16.655,4.914
		c-0.163,1.364-1.407,2.339-2.778,2.177c-1.372-0.161-2.352-1.4-2.188-2.765c0.164-1.364,1.408-2.339,2.779-2.174
		C15.84,2.312,16.818,3.551,16.655,4.914z"/>
	<path d="M13.959,11.458c-0.188-0.18-0.374-0.357-0.554-0.527c-0.392-0.35-0.874-0.609-1.456-0.913
		c-0.177-0.088-0.358-0.18-0.538-0.277c-0.018-0.006-0.069-0.03-0.069-0.03l-0.025-0.014c-0.072-0.036-0.145-0.07-0.217-0.108
		l-0.01-0.004l-0.052-0.031c-0.086-0.046-0.176-0.099-0.265-0.156l-0.06-0.038c-0.171-0.113-0.343-0.243-0.515-0.385
		c-0.021-0.02-0.038-0.033-0.059-0.048c-0.031-0.027-0.065-0.06-0.1-0.088L9.987,8.787L9.952,8.751L9.924,8.724
		c-0.077-0.071-0.17-0.161-0.253-0.265L9.666,8.452L9.609,8.386L9.589,8.363C9.524,8.286,9.463,8.209,9.413,8.142
		C9.392,8.112,9.366,8.08,9.344,8.044l-0.03-0.042L9.296,7.978L9.273,7.944c-0.04-0.06-0.075-0.118-0.105-0.171
		C9.067,7.613,8.99,7.468,8.939,7.345L8.924,7.312C8.903,7.268,8.884,7.224,8.862,7.18c-0.015-0.036-0.03-0.078-0.048-0.12
		L8.78,6.979l-0.018-0.05L8.751,6.895c0,0-0.061-0.18-0.07-0.21c-0.01-0.031-0.022-0.073-0.034-0.111
		C8.625,6.5,8.595,6.398,8.568,6.278L8.557,6.224c-0.046-0.193-0.077-0.396-0.102-0.6C7.189,6.636,5.86,7.681,4.551,8.7
		C3.885,9.22,3.2,9.75,2.515,10.281c-0.101,0.075-0.199,0.153-0.299,0.229c-0.114,0.088-0.231,0.178-0.347,0.267
		c-0.078,0.061-0.153,0.118-0.232,0.179c-0.139,0.105-0.277,0.215-0.414,0.319c-0.041,0.028-0.078,0.061-0.118,0.092
		c-0.167,0.126-0.332,0.254-0.494,0.378c-0.04,0.031-0.08,0.061-0.12,0.092c-0.16,0.124-0.32,0.246-0.476,0.367
		C0.01,12.208,0.005,12.211,0,12.216C1.892,15.81,5.089,18.604,8.966,20c0.212-0.292,0.406-0.562,0.58-0.803
		c0.283-0.39,0.574-0.784,0.873-1.188c0.723-0.983,1.485-2.005,2.255-3.017c0.769-1.004,1.469-1.894,2.121-2.708
		C14.516,12.005,14.237,11.729,13.959,11.458z"/>
</g>
</svg>
