<?xml version="1.0" encoding="utf-8"?>
<!-- Generator: Adobe Illustrator 16.0.0, SVG Export Plug-In . SVG Version: 6.00 Build 0)  -->
<!DOCTYPE svg PUBLIC "-//W3C//DTD SVG 1.1//EN" "http://www.w3.org/Graphics/SVG/1.1/DTD/svg11.dtd">
<svg version="1.1" id="Layer_1" xmlns="http://www.w3.org/2000/svg" xmlns:xlink="http://www.w3.org/1999/xlink" x="0px" y="0px"
	 width="20.736px" height="20.734px" viewBox="0 0 20.736 20.734" enable-background="new 0 0 20.736 20.734" xml:space="preserve">
<g>
	<path fill="#1D1D1B" d="M17.565,6.243H3.135c-1.57,0-2.847-1.277-2.847-2.845c0-1.57,1.277-2.847,2.847-2.847h14.43
		c1.569,0,2.847,1.277,2.847,2.847C20.412,4.966,19.135,6.243,17.565,6.243z M3.135,1.945c-0.801,0-1.453,0.65-1.453,1.453
		c0,0.798,0.653,1.453,1.453,1.453h14.43c0.801,0,1.453-0.654,1.453-1.453c0-0.802-0.652-1.453-1.453-1.453H3.135z"/>
</g>
<g>
	<path fill="#1D1D1B" d="M17.565,13.206H3.135c-1.57,0-2.847-1.278-2.847-2.847c0-1.57,1.277-2.847,2.847-2.847h14.43
		c1.569,0,2.847,1.277,2.847,2.847C20.412,11.927,19.135,13.206,17.565,13.206z M3.135,8.906c-0.8,0-1.453,0.651-1.453,1.453
		s0.653,1.451,1.453,1.451h14.43c0.801,0,1.453-0.649,1.453-1.451s-0.652-1.453-1.453-1.453H3.135z"/>
</g>
<g>
	<path fill="#1D1D1B" d="M17.565,20.168H3.135c-1.57,0-2.847-1.277-2.847-2.847c0-1.57,1.277-2.848,2.847-2.848h14.43
		c1.569,0,2.847,1.277,2.847,2.848C20.412,18.89,19.135,20.168,17.565,20.168z M3.135,15.867c-0.8,0-1.453,0.653-1.453,1.454
		c0,0.802,0.653,1.452,1.453,1.452h14.43c0.801,0,1.453-0.65,1.453-1.452c0-0.801-0.652-1.454-1.453-1.454H3.135z"/>
</g>
<rect x="1.388" y="1.366" fill="#1D1D1B" width="15.98" height="3.894"/>
<g>
	<rect x="1.388" y="8.615" fill="#1D1D1B" width="11.542" height="3.596"/>
</g>
<rect x="1.388" y="15.462" fill="#1D1D1B" width="13.699" height="3.604"/>
<path fill="none" stroke="#FFFFFF" stroke-width="0.3" stroke-miterlimit="10" d="M3.135,1.945c-0.801,0-1.453,0.65-1.453,1.453
	c0,0.798,0.653,1.453,1.453,1.453h14.43c0.801,0,1.453-0.654,1.453-1.453c0-0.802-0.652-1.453-1.453-1.453H3.135z"/>
<path fill="none" stroke="#FFFFFF" stroke-width="0.3" stroke-miterlimit="10" d="M3.135,8.905c-0.801,0-1.453,0.65-1.453,1.453
	c0,0.798,0.653,1.453,1.453,1.453h14.43c0.801,0,1.453-0.654,1.453-1.453c0-0.802-0.652-1.453-1.453-1.453H3.135z"/>
<path fill="none" stroke="#FFFFFF" stroke-width="0.3" stroke-miterlimit="10" d="M3.135,15.868c-0.801,0-1.453,0.65-1.453,1.452
	c0,0.799,0.653,1.453,1.453,1.453h14.43c0.801,0,1.453-0.654,1.453-1.453c0-0.802-0.652-1.452-1.453-1.452H3.135z"/>
</svg>
