<?xml version="1.0" encoding="utf-8"?>
<!-- Generator: Adobe Illustrator 14.0.0, SVG Export Plug-In . SVG Version: 6.00 Build 43363)  -->
<!DOCTYPE svg PUBLIC "-//W3C//DTD SVG 1.1//EN" "http://www.w3.org/Graphics/SVG/1.1/DTD/svg11.dtd">
<svg version="1.1" id="Calque_1" xmlns="http://www.w3.org/2000/svg" xmlns:xlink="http://www.w3.org/1999/xlink" x="0px" y="0px"
	 width="29px" height="29px" viewBox="-0.024 -0.042 29 29" enable-background="new -0.024 -0.042 29 29" xml:space="preserve">
<g>
	<path d="M18.334-0.042l-8.096,8.107C10,8.303,10,8.688,10.239,8.926l9.781,9.788c0.237,0.237,0.622,0.237,0.861,0l8.095-8.107
		L18.334-0.042z"/>
	<polygon points="8.24,12.952 8.24,14.618 6.796,15.148 5.296,14.097 3.164,14.517 -0.024,22.731 0.293,26.326 0.871,26.731 
		7.131,17.083 9.408,16.245 11.039,17.879 12.881,19.723 12.21,21.549 2.199,28.06 2.604,28.638 6.195,28.958 14.396,25.765 
		14.818,23.629 13.956,22.397 14.584,20.685 15.962,20.685 18.431,18.209 10.709,10.478 	"/>
</g>
</svg>
