<?xml version="1.0" encoding="utf-8"?>
<!-- Generator: Adobe Illustrator 16.0.0, SVG Export Plug-In . SVG Version: 6.00 Build 0)  -->
<!DOCTYPE svg PUBLIC "-//W3C//DTD SVG 1.1//EN" "http://www.w3.org/Graphics/SVG/1.1/DTD/svg11.dtd">
<svg version="1.1" id="Layer_1" xmlns="http://www.w3.org/2000/svg" xmlns:xlink="http://www.w3.org/1999/xlink" x="0px" y="0px"
	 width="21px" height="21px" viewBox="0 0 21 21" enable-background="new 0 0 21 21" xml:space="preserve">
<g>
	<g>
		<path fill="#1D1D1B" d="M7.938,17.708c-3.975,0-7.208-3.233-7.208-7.208c0-3.975,3.233-7.208,7.208-7.208s7.208,3.233,7.208,7.208
			C15.146,14.475,11.912,17.708,7.938,17.708z M7.938,4.292c-3.423,0-6.208,2.785-6.208,6.208s2.785,6.208,6.208,6.208
			c3.423,0,6.208-2.785,6.208-6.208S11.361,4.292,7.938,4.292z"/>
	</g>
	<path fill="#1D1D1B" d="M20.271,10.5c0,0.276-0.225,0.5-0.5,0.5h-4.906c-0.276,0-0.5-0.224-0.5-0.5l0,0c0-0.276,0.224-0.5,0.5-0.5
		h4.906C20.047,10,20.271,10.224,20.271,10.5L20.271,10.5z"/>
</g>
<g enable-background="new    ">
	<path fill="#1D1D1B" d="M8.655,13.831h-0.8V8.734C7.663,8.918,7.411,9.101,7.097,9.285C6.785,9.469,6.504,9.606,6.255,9.698V8.926
		C6.702,8.715,7.094,8.46,7.429,8.16C7.763,7.862,8,7.571,8.14,7.29h0.515V13.831L8.655,13.831z"/>
</g>
</svg>
