<?xml version="1.0" encoding="UTF-8" standalone="no"?>
<!-- Generator: Adobe Illustrator 21.0.2, SVG Export Plug-In . SVG Version: 6.00 Build 0)  -->

<svg
   xmlns:dc="http://purl.org/dc/elements/1.1/"
   xmlns:cc="http://creativecommons.org/ns#"
   xmlns:rdf="http://www.w3.org/1999/02/22-rdf-syntax-ns#"
   xmlns:svg="http://www.w3.org/2000/svg"
   xmlns="http://www.w3.org/2000/svg"
   xmlns:sodipodi="http://sodipodi.sourceforge.net/DTD/sodipodi-0.dtd"
   xmlns:inkscape="http://www.inkscape.org/namespaces/inkscape"
   version="1.1"
   id="Calque_2"
   x="0px"
   y="0px"
   viewBox="0 0 73.9 73.9"
   style="enable-background:new 0 0 73.9 73.9;"
   xml:space="preserve"
   sodipodi:docname="io-boards.svg"
   inkscape:version="0.92.2 (5c3e80d, 2017-08-06)"><metadata
     id="metadata13"><rdf:RDF><cc:Work
         rdf:about=""><dc:format>image/svg+xml</dc:format><dc:type
           rdf:resource="http://purl.org/dc/dcmitype/StillImage" /></cc:Work></rdf:RDF></metadata><defs
     id="defs11" /><sodipodi:namedview
     pagecolor="#ffffff"
     bordercolor="#666666"
     borderopacity="1"
     objecttolerance="10"
     gridtolerance="10"
     guidetolerance="10"
     inkscape:pageopacity="0"
     inkscape:pageshadow="2"
     inkscape:window-width="1920"
     inkscape:window-height="1027"
     id="namedview9"
     showgrid="false"
     inkscape:zoom="3.1935047"
     inkscape:cx="36.950001"
     inkscape:cy="36.950001"
     inkscape:window-x="-8"
     inkscape:window-y="-8"
     inkscape:window-maximized="1"
     inkscape:current-layer="Calque_2" /><style
     type="text/css"
     id="style2">
	.st0{fill:#808080;}
	.st1{fill:#4D81B7;}
</style><path
     id="curve3"
     class="st0"
     d="M51.2,28.4h11.4v11.4H51.2V28.4z"
     style="fill:#000000;fill-opacity:1" /><path
     id="curve2"
     class="st0"
     d="M22.8,28.4h17.1v17.1H22.8V28.4z"
     style="fill:#000000;fill-opacity:1" /><path
     id="curve1"
     class="st1"
     d="M14.2,17.1h54c3.1,0,5.7,2.6,5.7,5.7v28.4c0,3.1-2.6,5.7-5.7,5.7h-5.7v5.7h-2.8v-5.7h-2.8v5.7H54  v-5.7h-2.8v5.7h-2.8v-5.7h-2.8v5.7h-2.8v-5.7h-2.8v5.7h-5.7v-5.7H22.8v5.7h-8.5V17.1z M22.8,25.6c-1.6,0-2.8,1.3-2.8,2.8v17.1  c0,1.6,1.3,2.8,2.8,2.8h17.1c1.6,0,2.8-1.3,2.8-2.8V28.4c0-1.6-1.3-2.8-2.8-2.8H22.8z M51.2,25.6c-1.6,0-2.8,1.3-2.8,2.8v11.4  c0,1.6,1.3,2.8,2.8,2.8h11.4c1.6,0,2.8-1.3,2.8-2.8V28.4c0-1.6-1.3-2.8-2.8-2.8H51.2z"
     style="fill:#000000;fill-opacity:1" /><path
     id="curve0"
     class="st0"
     d="M0,0h5.7c3.1,0,5.7,2.6,5.7,5.7v68.3H5.7V5.7H0V0z"
     style="fill:#000000;fill-opacity:1" /></svg>