<?xml version="1.0" encoding="utf-8"?>
<!-- Generator: Adobe Illustrator 16.0.0, SVG Export Plug-In . SVG Version: 6.00 Build 0)  -->
<!DOCTYPE svg PUBLIC "-//W3C//DTD SVG 1.1//EN" "http://www.w3.org/Graphics/SVG/1.1/DTD/svg11.dtd">
<svg version="1.1" id="Calque_1" xmlns="http://www.w3.org/2000/svg" xmlns:xlink="http://www.w3.org/1999/xlink" x="0px" y="0px"
	 width="33px" height="17px" viewBox="0 0 33 17" enable-background="new 0 0 33 17" xml:space="preserve">
<g>
	<rect x="2.438" y="2.048" fill="#1D1D1B" width="28.051" height="4.403"/>
	<rect x="2.438" y="10.549" fill="#1D1D1B" width="28.051" height="4.402"/>
</g>
</svg>
