<?xml version="1.0" encoding="UTF-8" standalone="no"?>
<!-- Generator: Adobe Illustrator 16.0.0, SVG Export Plug-In . SVG Version: 6.00 Build 0)  -->

<svg
   xmlns:dc="http://purl.org/dc/elements/1.1/"
   xmlns:cc="http://creativecommons.org/ns#"
   xmlns:rdf="http://www.w3.org/1999/02/22-rdf-syntax-ns#"
   xmlns:svg="http://www.w3.org/2000/svg"
   xmlns="http://www.w3.org/2000/svg"
   xmlns:sodipodi="http://sodipodi.sourceforge.net/DTD/sodipodi-0.dtd"
   xmlns:inkscape="http://www.inkscape.org/namespaces/inkscape"
   version="1.1"
   id="Calque_1"
   x="0px"
   y="0px"
   width="21px"
   height="21px"
   viewBox="0 0 21 21"
   enable-background="new 0 0 21 21"
   xml:space="preserve"
   inkscape:version="0.91 r13725"
   sodipodi:docname="move.svg"><metadata
   id="metadata23"><rdf:RDF><cc:Work
       rdf:about=""><dc:format>image/svg+xml</dc:format><dc:type
         rdf:resource="http://purl.org/dc/dcmitype/StillImage" /><dc:title></dc:title></cc:Work></rdf:RDF></metadata><defs
   id="defs21" /><sodipodi:namedview
   pagecolor="#646464"
   bordercolor="#666666"
   borderopacity="1"
   objecttolerance="10"
   gridtolerance="10"
   guidetolerance="10"
   inkscape:pageopacity="0"
   inkscape:pageshadow="2"
   inkscape:window-width="1920"
   inkscape:window-height="1053"
   id="namedview19"
   showgrid="false"
   inkscape:zoom="11.238095"
   inkscape:cx="9.1652542"
   inkscape:cy="10.455508"
   inkscape:window-x="-9"
   inkscape:window-y="-9"
   inkscape:window-maximized="1"
   inkscape:current-layer="Calque_1" />

<g
   id="g5"
   style="fill:black;fill-opacity:1">
	<g
   id="g7"
   style="fill:black;fill-opacity:1">
		<circle
   fill="#FFFFFF"
   cx="14.656"
   cy="5.709"
   r="2"
   id="circle9"
   style="fill:black;fill-opacity:1" />
	</g>
</g>
<g
   id="g11"
   style="fill:black;fill-opacity:1">
	<path
   fill="#FFFFFF"
   d="M12.195,15.667c-0.352,0-0.639-0.289-0.643-0.645v-4.949L8.351,13.28c-0.122,0.123-0.284,0.19-0.458,0.19   c-0.171,0-0.331-0.066-0.451-0.187c-0.123-0.122-0.19-0.285-0.19-0.459c0-0.172,0.067-0.333,0.188-0.452l3.178-3.186L5.712,9.196   C5.359,9.193,5.07,8.901,5.069,8.545c0-0.352,0.289-0.641,0.645-0.643l6.481-0.006c0.23,0.002,0.438,0.13,0.551,0.343   c0.062,0.112,0.092,0.211,0.092,0.301l0.002,6.484c0,0.354-0.287,0.642-0.641,0.643H12.195z"
   id="path13"
   style="fill:black;fill-opacity:1" />
	<path
   fill="#FFFFFF"
   d="M5.659,15.722c-0.175,0-0.34-0.068-0.465-0.192c-0.253-0.253-0.252-0.669,0.002-0.927l0.818-0.82   c0.124-0.124,0.288-0.192,0.462-0.192s0.34,0.068,0.464,0.192c0.257,0.26,0.257,0.668-0.001,0.928l-0.816,0.818   C6,15.653,5.834,15.722,5.659,15.722z"
   id="path15"
   style="fill:black;fill-opacity:1" />
	<path
   fill="#FFFFFF"
   d="M4.095,17.293c-0.175,0-0.34-0.069-0.464-0.193s-0.192-0.286-0.192-0.46c0-0.176,0.069-0.342,0.194-0.466   c0.15-0.151,0.313-0.22,0.488-0.22c0.175,0,0.34,0.068,0.466,0.192c0.252,0.256,0.253,0.672-0.002,0.925   C4.435,17.225,4.27,17.293,4.095,17.293z"
   id="path17"
   style="fill:black;fill-opacity:1" />
</g>
</svg>