<?xml version="1.0" encoding="utf-8"?>
<!-- Generator: Adobe Illustrator 16.0.0, SVG Export Plug-In . SVG Version: 6.00 Build 0)  -->
<!DOCTYPE svg PUBLIC "-//W3C//DTD SVG 1.1//EN" "http://www.w3.org/Graphics/SVG/1.1/DTD/svg11.dtd">
<svg version="1.1" id="Calque_1" xmlns="http://www.w3.org/2000/svg" xmlns:xlink="http://www.w3.org/1999/xlink" x="0px" y="0px"
	 width="33px" height="33px" viewBox="0 0 33 33" enable-background="new 0 0 33 33" xml:space="preserve">
<path d="M16.5,23.602c-1.819,0-3.298-1.504-3.298-3.352s1.479-3.345,3.298-3.345c1.818,0,3.298,1.498,3.298,3.345
	S18.318,23.602,16.5,23.602z"/>
<path d="M24.931,28.585c0.005-0.01-0.844-0.417-0.536-1.771l0.088-0.387l-3.326-1.948c0.488-0.551,0.876-1.183,1.147-1.87
	l3.266,1.91l0.295-0.28c0.386-0.363,0.774-0.549,1.157-0.549c0.399,0,0.676,0.206,0.679,0.207l5.3,6.247L24.931,28.585z"/>
<path d="M15.384,10.532l-0.382-0.118c-1.357-0.419-1.224-1.415-1.216-1.458l2.677-7.755l2.702,7.851
	c-0.012,0.004,0.064,0.957-1.24,1.362l-0.382,0.119v3.475c-0.365-0.07-0.707-0.104-1.043-0.104c-0.36,0-0.729,0.039-1.116,0.118
	L15.384,10.532z"/>
<path d="M5.358,23.888C5.358,23.888,5.358,23.889,5.358,23.888c0.022,0.001,0.276-0.152,0.623-0.152c0.381,0,0.77,0.183,1.154,0.546
	l0.296,0.279l3.28-1.92c0.275,0.687,0.667,1.316,1.158,1.865l-3.355,1.963l0.088,0.388c0.319,1.406-0.596,1.786-0.635,1.802
	L0,30.189L5.358,23.888z"/>
</svg>
