<?xml version="1.0" encoding="utf-8"?>
<!-- Generator: Adobe Illustrator 15.0.0, SVG Export Plug-In . SVG Version: 6.00 Build 0)  -->
<!DOCTYPE svg PUBLIC "-//W3C//DTD SVG 1.1//EN" "http://www.w3.org/Graphics/SVG/1.1/DTD/svg11.dtd">
<svg version="1.1" id="Layer_1" xmlns="http://www.w3.org/2000/svg" xmlns:xlink="http://www.w3.org/1999/xlink" x="0px" y="0px"
	 width="33.689px" height="34.529px" viewBox="0 0 33.689 34.529" enable-background="new 0 0 33.689 34.529" xml:space="preserve">
<path d="M33.015,26.332c-1.01-1.576-4.406-2.557-7.768-3.957s-4.16-1.887-4.16-1.887l-0.029-3.225c0,0,1.26-0.969,1.65-4.004
	c0.787,0.229,1.613-1.176,1.658-1.914c0.043-0.711-0.107-2.689-1.068-2.488c0.195-1.486,0.338-2.826,0.268-3.535
	C23.316,2.734,20.765,0,16.843,0s-6.473,2.734-6.723,5.322c-0.068,0.709,0.074,2.049,0.27,3.535
	c-0.961-0.201-1.111,1.777-1.068,2.488c0.043,0.738,0.869,2.143,1.66,1.914c0.389,3.035,1.648,4.004,1.648,4.004l-0.031,3.225
	c0,0-0.799,0.486-4.158,1.887c-3.363,1.4-6.758,2.381-7.768,3.957c-0.908,1.414-0.635,8.197-0.635,8.197h16.805H33.65
	C33.65,34.529,33.923,27.746,33.015,26.332z"/>
</svg>
