{
  "version": "1.0",
  "bindings": [
    {
      "id": "lbl_title",
      "attribute": "innerHTML",
      "data": "sTitle[0]",
      "size": 1,
      "direction": "r",
      "refresh": 1
    }
  ],
  "callbacks": [
    {
      "id": "btn_home",
      "event": "click",
      "data": "click_pageHome",
      "priority": 10
    }
  ]
}