<?xml version="1.0" encoding="utf-8"?>
<!-- Generator: Adobe Illustrator 16.0.0, SVG Export Plug-In . SVG Version: 6.00 Build 0)  -->
<!DOCTYPE svg PUBLIC "-//W3C//DTD SVG 1.1//EN" "http://www.w3.org/Graphics/SVG/1.1/DTD/svg11.dtd">
<svg version="1.1" id="Calque_1" xmlns="http://www.w3.org/2000/svg" xmlns:xlink="http://www.w3.org/1999/xlink" x="0px" y="0px"
	 width="21px" height="21px" viewBox="0 0 21 21" enable-background="new 0 0 21 21" xml:space="preserve">
<path d="M20.978,8.312c-0.077-1.068-0.376-2.13-0.867-3.071c-0.436-0.838-1.04-1.609-1.738-2.22
	c-0.126-0.125-0.263-0.228-0.396-0.328l-0.113-0.085c-0.172-0.131-0.338-0.256-0.509-0.349l-0.165-0.1
	c-0.106-0.066-0.212-0.13-0.337-0.197l-0.49-0.224c-0.053-0.023-0.105-0.048-0.156-0.073c-0.106-0.048-0.21-0.097-0.322-0.134
	l-0.864-0.262c-0.09-0.02-0.179-0.034-0.265-0.048l-0.132-0.021c-0.087-0.013-0.169-0.027-0.249-0.041
	C14.227,1.134,14.09,1.111,13.954,1.1l-0.881-0.03c-0.002,0-0.004,0-0.006,0c-0.105,0-0.192,0.081-0.199,0.187
	c-0.007,0.107,0.073,0.2,0.181,0.21l0.866,0.083c0.111,0.016,0.229,0.045,0.358,0.076c0.082,0.02,0.17,0.04,0.253,0.059l0.146,0.033
	c0.071,0.017,0.145,0.033,0.204,0.049l0.813,0.302c0.085,0.033,0.166,0.079,0.249,0.125c0.057,0.029,0.11,0.059,0.174,0.091
	c0.546,0.253,1.15,0.692,1.745,1.269c0.601,0.595,1.098,1.315,1.438,2.083c0.379,0.849,0.584,1.791,0.594,2.724
	c0.013,0.986-0.193,1.979-0.603,2.887c-0.054,0.146-0.133,0.285-0.217,0.434c-0.044,0.076-0.088,0.152-0.122,0.223l-0.038,0.067
	c-0.013,0.023-0.025,0.049-0.04,0.068l-0.351,0.507c-0.094,0.127-0.19,0.236-0.287,0.346c-0.065,0.075-0.13,0.148-0.176,0.207
	c-0.064,0.062-0.13,0.124-0.194,0.186c-0.118,0.114-0.235,0.229-0.362,0.335c-0.756,0.632-1.662,1.097-2.619,1.343
	c-0.606,0.163-1.248,0.221-1.891,0.191c1.525-0.813,2.627-2.295,2.905-4.065c0.053-0.205,0.1-0.407,0.131-0.604l0.108-0.919
	c0.009-0.098,0.017-0.198,0.017-0.281l0.003-0.359c0-1.153-0.229-2.303-0.662-3.324c-0.472-1.121-1.189-2.131-2.074-2.918
	c-0.912-0.822-2.012-1.441-3.18-1.789c-0.201-0.061-0.407-0.106-0.611-0.15L9.332,0.678L9.05,0.642
	C8.834,0.614,8.617,0.586,8.41,0.576L7.745,0.563c-0.06,0-0.102,0.004-0.142,0.007L7.521,0.577c-0.09,0.01-0.18,0.015-0.271,0.022
	C7.047,0.613,6.837,0.628,6.641,0.673C5.496,0.86,4.388,1.303,3.437,1.952C2.551,2.553,1.782,3.343,1.212,4.238
	C0.704,5.035,0.338,5.944,0.159,6.853C0.113,7.025,0.092,7.196,0.073,7.361L0.056,7.502C0.029,7.703,0.003,7.917,0.007,8.118
	L0.004,8.311C0,8.435-0.003,8.557,0.001,8.702l0.051,0.535C0.06,9.293,0.065,9.35,0.07,9.406c0.01,0.118,0.02,0.232,0.044,0.347
	l0.206,0.882c0.029,0.087,0.06,0.17,0.091,0.251l0.046,0.125c0.032,0.08,0.06,0.157,0.088,0.232
	c0.052,0.143,0.101,0.273,0.159,0.396l0.413,0.778c0.05,0.096,0.167,0.132,0.264,0.086c0.097-0.047,0.138-0.162,0.094-0.261
	l-0.36-0.795C1.07,11.341,1.034,11.22,0.995,11.09c-0.023-0.078-0.047-0.16-0.073-0.239l-0.04-0.131
	c-0.023-0.072-0.046-0.148-0.063-0.21L0.674,9.656C0.661,9.563,0.66,9.469,0.657,9.371C0.656,9.31,0.654,9.248,0.65,9.179
	C0.596,8.581,0.675,7.838,0.877,7.035C1.09,6.218,1.465,5.428,1.961,4.747C2.508,3.994,3.22,3.345,4.023,2.871
	c0.849-0.504,1.812-0.823,2.801-0.922c0.234-0.04,0.509-0.021,0.739-0.032l0.075-0.002l0.696,0.051
	C8.493,1.983,8.638,2.012,8.782,2.04c0.095,0.02,0.189,0.039,0.261,0.049C9.13,2.116,9.218,2.141,9.305,2.165
	C9.462,2.21,9.62,2.254,9.773,2.311c0.925,0.339,1.779,0.891,2.472,1.597c0.456,0.458,0.838,1,1.137,1.588
	c-0.062-0.04-0.13-0.068-0.192-0.105c-0.084-0.05-0.177-0.097-0.27-0.146c-0.199-0.104-0.402-0.199-0.615-0.278
	c-0.113-0.043-0.221-0.092-0.343-0.13c-0.112-0.035-0.231-0.056-0.347-0.084c-0.058-0.014-0.114-0.031-0.172-0.042
	C10.712,4.558,9.929,4.53,9.186,4.655C8.634,4.747,8.153,4.874,7.718,5.043L6.864,5.408C6.776,5.45,6.688,5.492,6.613,5.534
	l-0.31,0.177c-0.998,0.577-1.879,1.35-2.548,2.236c-0.736,0.969-1.251,2.094-1.49,3.255c-0.256,1.202-0.242,2.464,0.041,3.649
	c0.049,0.206,0.114,0.408,0.179,0.61l0.088,0.277l0.268,0.633c0.034,0.084,0.07,0.159,0.105,0.219l0.315,0.571l0.172-0.1
	l-0.139,0.155l0.097,0.141c0.051,0.071,0.099,0.144,0.148,0.217c0.116,0.172,0.236,0.349,0.376,0.5
	c0.734,0.897,1.671,1.636,2.709,2.136c0.964,0.466,2.033,0.736,3.092,0.782C9.833,20.998,9.945,21,10.059,21
	c0.844,0,1.672-0.137,2.45-0.403c0.176-0.046,0.334-0.115,0.489-0.182l0.407-0.174c0.066-0.029,0.127-0.062,0.185-0.097l0.256-0.139
	c0.11-0.061,0.218-0.12,0.339-0.194l0.156-0.103c0.101-0.065,0.199-0.131,0.292-0.198c0.505-0.37,0.967-0.799,1.33-1.236
	c0.161-0.188,0.292-0.365,0.417-0.536l0.105-0.157c0.063-0.095,0.122-0.18,0.165-0.255l0.201-0.347
	c0.054-0.094,0.023-0.213-0.067-0.269c-0.089-0.057-0.211-0.031-0.271,0.059l-0.223,0.334c-0.045,0.068-0.104,0.143-0.168,0.227
	l-0.106,0.14c-0.116,0.141-0.253,0.304-0.42,0.476c-0.36,0.386-0.812,0.755-1.304,1.071c-0.091,0.057-0.186,0.112-0.283,0.167
	l-0.146,0.086c-0.096,0.05-0.204,0.101-0.314,0.152l-0.266,0.125c-0.05,0.024-0.1,0.05-0.153,0.068l-0.402,0.143
	c-0.139,0.05-0.269,0.097-0.421,0.128c-0.588,0.161-1.196,0.242-1.808,0.242c-0.238,0-0.479-0.014-0.714-0.038
	c-0.926-0.098-1.845-0.391-2.657-0.848c-0.86-0.482-1.618-1.157-2.199-1.964c-0.1-0.12-0.181-0.258-0.267-0.405
	c-0.044-0.075-0.088-0.152-0.134-0.223l-0.05-0.082L4.474,16.57c-0.004-0.012-0.01-0.023-0.016-0.034
	c-0.002-0.006-0.004-0.01-0.006-0.015l-0.271-0.572c-0.027-0.051-0.045-0.101-0.062-0.154L3.94,15.287
	c-0.021-0.092-0.044-0.185-0.067-0.276c-0.04-0.155-0.079-0.31-0.106-0.467c-0.169-0.971-0.118-1.987,0.146-2.939
	C4.096,10.93,4.4,10.277,4.804,9.69C4.787,9.866,4.75,10.037,4.75,10.218c0,1.857,0.917,3.495,2.312,4.518
	c0.079,0.07,0.156,0.149,0.235,0.213l0.735,0.55c0.082,0.058,0.166,0.116,0.241,0.159l0.308,0.18
	c0.998,0.576,2.108,0.953,3.211,1.09c0.342,0.043,0.69,0.065,1.036,0.065c0.873,0,1.724-0.137,2.528-0.402
	c1.167-0.38,2.253-1.021,3.138-1.859c0.153-0.146,0.296-0.302,0.437-0.458l0.201-0.22l0.163-0.215
	c0.136-0.178,0.271-0.354,0.387-0.533l0.32-0.53c0.046-0.074,0.066-0.12,0.088-0.167l0.035-0.072
	c0.036-0.081,0.075-0.161,0.114-0.242c0.091-0.184,0.184-0.374,0.242-0.569C20.894,10.642,21.064,9.461,20.978,8.312z M10.367,7.327
	c1.593,0,2.89,1.297,2.89,2.891s-1.297,2.891-2.89,2.891c-1.594,0-2.891-1.297-2.891-2.891S8.773,7.327,10.367,7.327z"/>
</svg>
