<?xml version="1.0" encoding="UTF-8" standalone="no"?>
<!-- Generator: Adobe Illustrator 16.0.0, SVG Export Plug-In . SVG Version: 6.00 Build 0)  -->

<svg
   xmlns:dc="http://purl.org/dc/elements/1.1/"
   xmlns:cc="http://creativecommons.org/ns#"
   xmlns:rdf="http://www.w3.org/1999/02/22-rdf-syntax-ns#"
   xmlns:svg="http://www.w3.org/2000/svg"
   xmlns="http://www.w3.org/2000/svg"
   xmlns:sodipodi="http://sodipodi.sourceforge.net/DTD/sodipodi-0.dtd"
   xmlns:inkscape="http://www.inkscape.org/namespaces/inkscape"
   version="1.1"
   id="Calque_1"
   x="0px"
   y="0px"
   width="21px"
   height="21px"
   viewBox="6 -0.458 21 21"
   enable-background="new 6 -0.458 21 21"
   xml:space="preserve"
   inkscape:version="0.91 r13725"
   sodipodi:docname="point_b.svg"><metadata
   id="metadata3366"><rdf:RDF><cc:Work
       rdf:about=""><dc:format>image/svg+xml</dc:format><dc:type
         rdf:resource="http://purl.org/dc/dcmitype/StillImage" /><dc:title></dc:title></cc:Work></rdf:RDF></metadata><defs
   id="defs3364" /><sodipodi:namedview
   pagecolor="#ffffff"
   bordercolor="#666666"
   borderopacity="1"
   objecttolerance="10"
   gridtolerance="10"
   guidetolerance="10"
   inkscape:pageopacity="0"
   inkscape:pageshadow="2"
   inkscape:window-width="1680"
   inkscape:window-height="1028"
   id="namedview3362"
   showgrid="false"
   inkscape:zoom="22.47619"
   inkscape:cx="5.7751685"
   inkscape:cy="8.0982023"
   inkscape:window-x="1672"
   inkscape:window-y="-8"
   inkscape:window-maximized="1"
   inkscape:current-layer="Calque_1" />
<circle
   fill="#1D1D1B"
   cx="16.5"
   cy="10.042"
   r="10.5"
   id="circle3352" />


<path
   style="fill:#ffffff"
   d=""
   id="path3426"
   inkscape:connector-curvature="0"
   transform="translate(6,-0.458)" /><path
   inkscape:connector-curvature="0"
   d="m 16.544255,11.894206 c -0.857678,0 -1.555042,-0.709151 -1.555042,-1.580503 0,-0.8713513 0.697364,-1.5772024 1.555042,-1.5772024 0.857206,0 1.555042,0.7063232 1.555042,1.5772024 0,0.870879 -0.697836,1.580503 -1.555042,1.580503 z"
   id="path3472"
   style="fill:#ffffff" /><path
   inkscape:connector-curvature="0"
   d="m 20.519561,14.243744 c 0.0024,-0.0047 -0.397954,-0.19662 -0.25273,-0.835046 l 0.04149,-0.182474 -1.568244,-0.918503 c 0.230097,-0.259802 0.413043,-0.557797 0.540822,-0.881725 l 1.539953,0.900586 0.139096,-0.132023 c 0.182003,-0.171158 0.36495,-0.25886 0.545538,-0.25886 0.188133,0 0.318741,0.09713 0.320156,0.0976 l 2.499006,2.945527 -3.80509,-0.735086 z"
   id="path3474"
   style="fill:#ffffff" /><path
   inkscape:connector-curvature="0"
   d="M 16.018049,5.7315635 15.837932,5.6759252 C 15.198093,5.4783623 15.260804,5.0087378 15.264576,4.9884627 l 1.262234,-3.6565644 1.274022,3.7018296 c -0.0057,0.00188 0.03017,0.4512356 -0.584675,0.6421973 l -0.180116,0.05611 0,1.6384992 c -0.172102,-0.033006 -0.333358,-0.049037 -0.491786,-0.049037 -0.169743,0 -0.343732,0.018389 -0.526206,0.055637 l 0,-1.6455719 z"
   id="path3476"
   style="fill:#ffffff" /><path
   inkscape:connector-curvature="0"
   d="m 11.290685,12.029058 c 0,0 0,4.73e-4 0,0 0.01037,4.73e-4 0.130137,-0.07167 0.29375,-0.07167 0.179646,0 0.363064,0.08629 0.544124,0.257444 l 0.139566,0.131553 1.546555,-0.905301 c 0.129666,0.323928 0.314498,0.620508 0.546009,0.879366 l -1.581918,0.925577 0.04149,0.182946 c 0.150412,0.662944 -0.28102,0.842117 -0.299408,0.849661 l -3.7565212,0.721414 2.5263532,-2.970989 z"
   id="path3478"
   style="fill:#ffffff" /></svg>