<?xml version="1.0"?>
<svg width="48" height="48" xmlns="http://www.w3.org/2000/svg" xmlns:svg="http://www.w3.org/2000/svg">
 <g class="layer">
  <title>Layer 1</title>
  <path d="m23.973022,0.208813c-13.191301,0 -23.884654,10.664726 -23.884654,23.820691s10.693354,23.820691 23.884654,23.820691s23.884665,-10.664715 23.884665,-23.820691s-10.693364,-23.820691 -23.884665,-23.820691zm11.755239,20.273391l-12.757394,12.724219c-1.549516,1.54437 -4.002676,1.622782 -5.45366,0.175671c-0.207991,-0.207436 -0.376185,-0.438694 -0.520479,-0.68286l-5.21482,-5.198868c-1.549516,-1.545367 -1.628136,-3.990958 -0.177152,-5.438059c1.451988,-1.446125 3.906142,-1.3687 5.45367,0.176678l3.178656,3.170133l10.213676,-10.188305c1.550511,-1.544381 4.002676,-1.622782 5.452666,-0.175681c1.451988,1.445117 1.372375,3.893689 -0.175153,5.437073l-0.00001,0z" fill="#aad255" id="svg_1" transform="rotate(1 23.973 24.0295)"/>
 </g>
</svg>