<?xml version="1.0" encoding="utf-8"?>
<!-- Generator: Adobe Illustrator 14.0.0, SVG Export Plug-In . SVG Version: 6.00 Build 43363)  -->
<!DOCTYPE svg PUBLIC "-//W3C//DTD SVG 1.1//EN" "http://www.w3.org/Graphics/SVG/1.1/DTD/svg11.dtd">
<svg version="1.1" id="Calque_1" xmlns="http://www.w3.org/2000/svg" xmlns:xlink="http://www.w3.org/1999/xlink" x="0px" y="0px"
	 width="33px" height="33px" viewBox="0 -2 33 33" enable-background="new 0 -2 33 33" xml:space="preserve">
<path d="M27.135,21.92c0,0-1.073-0.87-2.352,0.34l-6.825-3.992v-7.907c1.674-0.518,1.47-1.895,1.47-1.895l-2.961-8.603l-2.961,8.602
	c0,0-0.208,1.377,1.467,1.896l-0.001,7.985l-6.753,3.952c-1.278-1.208-2.351-0.336-2.351-0.336L0,28.863l8.825-1.702
	c0,0,1.28-0.507,0.889-2.235l6.82-3.994l6.753,3.953c-0.395,1.727,0.888,2.233,0.888,2.233L33,28.822L27.135,21.92z"/>
</svg>
